<?xml version="1.0" standalone="no"?>
<!DOCTYPE svg PUBLIC "-//W3C//DTD SVG 1.1//EN" "http://www.w3.org/Graphics/SVG/1.1/DTD/svg11.dtd" >
<!--
2017-8-5: Created with FontForge (http://fontforge.org)
-->
<svg xmlns="http://www.w3.org/2000/svg" xmlns:xlink="http://www.w3.org/1999/xlink" version="1.1">
<metadata>
Created by FontForge 20160405 at Sat Aug  5 21:38:51 2017
 By Apache
Copyright (c) 2017, Apache
</metadata>
<defs>
<font id="Flaticon" horiz-adv-x="512" >
  <font-face 
    font-family="Flaticon"
    font-weight="400"
    font-stretch="normal"
    units-per-em="512"
    panose-1="2 0 5 3 0 0 0 0 0 0"
    ascent="448"
    descent="-64"
    bbox="-0.000504694 -64.0029 512.001 448"
    underline-thickness="25.6"
    underline-position="-51.2"
    unicode-range="U+0020-F10F"
  />
    <missing-glyph />
    <glyph glyph-name="space" unicode=" " horiz-adv-x="200" 
 />
    <glyph glyph-name="uniF108" unicode="&#xf108;" 
d="M333.508 287.333c-4.41602 0 -8 3.58301 -8 8.00098c0 4.41699 3.58398 8 8 8h149.816c7.85059 0 15.001 -3.2334 20.2012 -8.41699l0.0332031 -0.0332031c5.18262 -5.2002 8.43262 -12.3838 8.43262 -20.2168v-310c0 -7.86621 -3.23242 -15.0674 -8.41699 -20.25
l-0.533203 -0.482422c-5.15039 -4.89941 -12.1006 -7.93262 -19.7168 -7.93262h-454.633c-7.88379 0 -15.0664 3.23242 -20.25 8.41699c-5.2002 5.19922 -8.43359 12.3818 -8.43359 20.2656v309.998c0 7.83301 3.2334 15.0176 8.41699 20.2178l0.0166016 0.0166016
l-0.0166016 0.0166016c5.18359 5.18359 12.3828 8.41699 20.25 8.41699h149.833c4.41699 0 8.00098 -3.58301 8.00098 -8s-3.58301 -8.00098 -8.00098 -8.00098h-149.833c-3.4668 0 -6.65039 -1.43262 -8.93359 -3.73242h-0.0166016
c-2.2832 -2.2832 -3.71582 -5.4668 -3.71582 -8.93359v-310c0 -3.4502 1.44922 -6.63281 3.73242 -8.93359c2.30078 -2.2998 5.4668 -3.73438 8.93359 -3.73438h454.649c3.33301 0 6.38379 1.31738 8.65039 3.43359l0.283203 0.299805
c2.2998 2.2998 3.7334 5.46484 3.7334 8.93262v310.001c0 3.4668 -1.44824 6.66699 -3.74805 8.9668c-2.30078 2.2666 -5.46777 3.7002 -8.91699 3.7002h-149.818v-0.0166016zM245.674 18.6826c-4.41602 0 -8 3.58398 -8 8c0 4.41699 3.58301 8 8 8h124
c4.41699 0 8 -3.58301 8 -8c0 -4.41602 -3.58301 -8 -8 -8h-124v0zM245.674 60.0156c-4.41602 0 -8 3.58398 -8 8c0 4.41699 3.58301 8 8 8h196.334c4.41602 0 7.99902 -3.58301 7.99902 -8c0 -4.41602 -3.58203 -8 -7.99902 -8h-196.334v0zM245.674 101.35
c-4.41602 0 -8 3.58398 -8 8.00098s3.58301 7.99902 8 7.99902h196.334c4.41602 0 7.99902 -3.58203 7.99902 -7.99902s-3.58203 -8.00098 -7.99902 -8.00098h-196.334v0zM245.674 142.684c-4.41602 0 -8 3.58301 -8 8c0 4.41602 3.58301 8 8 8h196.334
c4.41602 0 7.99902 -3.58398 7.99902 -8c0 -4.41699 -3.58203 -8 -7.99902 -8h-196.334zM135.107 158.684c13.5664 0 25.8994 -5.5166 34.8506 -14.4492l0.0166016 -0.0175781l0.0166016 -0.0166016l0.0166016 -0.0175781c8.91699 -8.9502 14.4336 -21.2666 14.4336 -34.834
c0 -13.583 -5.5332 -25.9326 -14.4502 -34.8496l-0.0332031 -0.0332031c-8.91602 -8.91602 -21.2666 -14.4492 -34.8506 -14.4492s-25.9336 5.5332 -34.8496 14.4492l-0.0341797 0.0332031c-8.91602 8.91699 -14.4492 21.2666 -14.4492 34.8496
s5.5332 25.9336 14.4492 34.8506l0.0341797 0.0322266c8.93262 8.91895 21.2656 14.4521 34.8496 14.4521v0zM158.675 132.95c-6 6.01562 -14.3506 9.7334 -23.5664 9.7334c-9.2002 0 -17.5332 -3.7334 -23.5664 -9.7334l-0.0332031 -0.0332031
c-6 -6.03418 -9.71582 -14.3672 -9.71582 -23.5674s3.71582 -17.5332 9.71582 -23.5664l0.0332031 -0.0332031c6.0332 -6 14.3662 -9.7168 23.5664 -9.7168s17.5342 3.7168 23.5664 9.7168l0.0332031 0.0332031c6 6.0332 9.7168 14.3662 9.7168 23.5664
c0 9.2168 -3.7168 17.5674 -9.7168 23.5674zM93.7744 18.6826c-4.41602 0 -8 3.58398 -8 8c0 4.41699 3.58301 8 8 8h82.667c4.41699 0 8.00098 -3.58301 8.00098 -8c0 -4.41602 -3.58301 -8 -8.00098 -8h-82.667zM333.508 246c-4.41602 0 -8 3.58301 -8 8.00098
c0 4.41699 3.58398 8 8 8h41.333c4.41602 0 8 -3.58301 8 -8v-0.200195v-41.1338c0 -4.41602 -3.58301 -8 -8 -8h-0.200195h-237.467c-4.41602 0 -8 3.58301 -8 8v0.216797v41.1338c0 4.41602 3.58301 8 8 8h0.200195h41.1162c4.41699 0 8.00098 -3.58301 8.00098 -8
c0 -4.41797 -3.58301 -8.00098 -8.00098 -8.00098h-33.332v-25.333h221.683v25.333h-33.335l0.00195312 -0.0166016v0zM219.841 448h0.200195h72.1172c4.41602 0 8 -3.58301 8 -8v-0.200195v-185.783c0 -4.41699 -3.58301 -8.00098 -8 -8.00098h-0.200195h-72.1172
c-4.41602 0 -8 3.58398 -8 8.00098v0.216797v185.767c0 4.41699 3.59961 8 8 8v0zM284.158 432h-56.3164v-169.984h56.3164v169.984zM242.574 398.684c0 7.41895 6.01465 13.4326 13.4336 13.4326s13.4326 -6.01367 13.4326 -13.4326s-6.01367 -13.4336 -13.4326 -13.4336
s-13.4336 6.01465 -13.4336 13.4336z" />
    <glyph glyph-name="uniF10F" unicode="&#xf10f;" 
d="M40.001 144.069c-4.39941 0 -7.96582 3.56836 -7.96582 7.96582c0 4.40039 3.56641 7.96582 7.96582 7.96582l39.417 -0.0664062l66.499 77.2832c2.86719 3.34961 7.90039 3.73242 11.25 0.866211c0.533203 -0.450195 0.983398 -0.96582 1.36621 -1.51562
l57.7666 -72.1836l121.699 136.949c2.93359 3.2998 7.9834 3.58398 11.2832 0.666992l0.648438 -0.666992l72.8496 -72.7656l26.5996 39.8994c2.45117 3.65039 7.40039 4.63281 11.0674 2.18359c3.64941 -2.4502 4.63379 -7.40039 2.18262 -11.0674l-31.7822 -47.6826
c-0.316406 -0.517578 -0.700195 -1.0166 -1.16797 -1.4668c-3.09961 -3.11621 -8.16602 -3.13281 -11.2822 -0.0332031l-74.0654 74l-122.349 -137.666l-0.0166016 0.0175781c-0.300781 -0.332031 -0.633789 -0.634766 -0.983398 -0.933594
c-3.43359 -2.7334 -8.44922 -2.18164 -11.1826 1.25l-58.0166 72.499l-62.6162 -72.7832l-0.0166016 0.0175781c-1.4834 -1.7334 -3.65039 -2.80176 -6.06641 -2.80176l-43.084 0.0683594v0zM349.582 301.685l0.333008 -0.333008zM248.033 400.018
c4.41699 0 8 -3.58398 8 -8.00098s-3.58301 -8 -8 -8h-232.031v-288.13h479.996v288.13h-216.016c-4.41602 0 -8 3.58301 -8 8s3.58301 8.00098 8 8.00098h223.814h0.200195c4.41602 0 8 -3.58398 8 -8.00098v-303.932v-0.198242c0 -4.41602 -3.58301 -8 -8 -8h-495.779
h-0.216797c-4.41602 0.000976562 -7.99902 3.58398 -7.99902 8v303.914v0.216797c0 4.41602 3.58301 8 7.99902 8h240.032v0zM240.017 440.033c0 4.40039 3.58301 7.9668 7.9668 7.9668c4.39941 0 7.96582 -3.56641 7.96582 -7.9668l0.0166016 -48
c0 -4.39941 -3.56641 -7.96582 -7.96582 -7.96582c-4.40039 0 -7.9668 3.56641 -7.9668 7.96582zM240.05 56.0205c0 4.40137 3.56641 7.9668 7.96582 7.9668s7.9668 -3.56738 7.9668 -7.9668l-0.0341797 -80.0498c0 -4.38281 -3.56641 -7.96582 -7.96582 -7.96582
c-4.40039 0 -7.9668 3.56641 -7.9668 7.96582zM128.301 58.2031c1.20117 4.25 5.61621 6.69922 9.86621 5.5c4.2334 -1.20117 6.7002 -5.61621 5.5 -9.86621l-31.9326 -112.032c-1.2002 -4.25 -5.61621 -6.70117 -9.86621 -5.5
c-4.2334 1.19922 -6.7002 5.61621 -5.5 9.86621zM352.332 53.8369c-1.2002 4.25 1.25 8.66504 5.5 9.86621s8.66602 -1.25 9.86621 -5.5l31.9834 -112.032c1.20117 -4.23438 -1.24902 -8.66699 -5.49902 -9.86621c-4.23535 -1.20117 -8.66602 1.25 -9.86719 5.5z
M8.00098 47.8691c-4.41602 0 -7.99902 3.58203 -7.99902 8c0 4.41699 3.58301 7.99902 7.99902 7.99902h495.997c4.41602 0 8 -3.58203 8 -7.99902c0 -4.39941 -3.58301 -8 -8 -8h-495.997z" />
    <glyph glyph-name="uniF100" unicode="&#xf100;" 
d="M1.05859 273.311c0 4.40039 3.58301 7.96777 7.9668 7.96777c4.38281 0 7.9668 -3.58398 7.9668 -7.96777v-288.176c0 -9.11621 3.75 -17.417 9.75098 -23.4346c6.0166 -6.01758 14.3164 -9.76758 23.4336 -9.76758h411.664c9.11621 0 17.416 3.75 23.4336 9.76758
c6.01855 6.01758 9.75 14.3184 9.75 23.4346v288.176c0 4.40039 3.58398 7.96777 7.96777 7.96777s7.9668 -3.58398 7.9668 -7.96777v-288.176c0 -13.5176 -5.53418 -25.8164 -14.417 -34.7002c-8.90137 -8.90234 -21.1846 -14.4336 -34.7002 -14.4336h-411.665
c-13.5166 0 -25.8174 5.5332 -34.7012 14.4336c-8.88379 8.88281 -14.417 21.1826 -14.417 34.7012v288.175zM155.412 244.76h-76.6855v-86.9688h76.6855v86.9688v0zM70.7598 260.693h92.4199h0.199219c4.40039 0 7.96777 -3.58301 7.96777 -7.9668v-102.703v-0.200195
c0 -4.39941 -3.58398 -7.9668 -7.96777 -7.9668h-92.418h-0.200195c-4.39941 0 -7.9668 3.58398 -7.9668 7.9668v102.704v0.200195c-0.0166016 4.38379 3.56738 7.96582 7.96582 7.96582zM433.289 244.76h-76.6855v-86.9688h76.6855v86.9688v0zM348.62 260.693h92.4199
h0.216797c4.39941 0 7.9668 -3.58301 7.9668 -7.9668v-102.703v-0.200195c0 -4.39941 -3.58398 -7.9668 -7.9668 -7.9668h-92.4209h-0.200195c-4.39941 0 -7.9834 3.58398 -7.9834 7.9668v102.704v0.200195c0 4.38379 3.58301 7.96582 7.96777 7.96582zM294.334 244.76
h-76.6865v-86.9688h76.6865v86.9688v0zM209.682 260.693h92.4199h0.216797c4.40039 0 7.9668 -3.58301 7.9668 -7.9668v-102.703v-0.200195c0 -4.39941 -3.58398 -7.9668 -7.9668 -7.9668h-92.4209h-0.216797c-4.40039 0 -7.9668 3.58398 -7.9668 7.9668v102.704v0.200195
c0.000976562 4.38379 3.58398 7.96582 7.96777 7.96582zM155.412 100.655h-76.6855v-86.9697h76.6855v86.9697v0zM70.7598 116.606h92.4199h0.199219c4.40039 0 7.96777 -3.58398 7.96777 -7.9668v-102.704v-0.217773c0 -4.39941 -3.58398 -7.9668 -7.96777 -7.9668h-92.418
h-0.200195c-4.39941 0 -7.9668 3.58301 -7.9668 7.9668v102.704v0.199219c-0.0166016 4.40137 3.56738 7.98535 7.96582 7.98535zM433.289 100.655h-76.6855v-86.9697h76.6855v86.9697v0zM348.62 116.606h92.4199h0.216797c4.39941 0 7.9668 -3.58398 7.9668 -7.9668
v-102.704v-0.217773c0 -4.39941 -3.58398 -7.9668 -7.9668 -7.9668h-92.4209h-0.200195c-4.39941 0 -7.9834 3.58301 -7.9834 7.9668v102.704v0.199219c0 4.40137 3.58301 7.98535 7.96777 7.98535zM294.334 100.655h-76.6865v-86.9697h76.6865v86.9697v0zM209.682 116.606
h92.4199h0.216797c4.40039 0 7.9668 -3.58398 7.9668 -7.9668v-102.704v-0.217773c0 -4.39941 -3.58398 -7.9668 -7.9668 -7.9668h-92.4209h-0.216797c-4.40039 0 -7.9668 3.58301 -7.9668 7.9668v102.704v0.199219c0.000976562 4.40137 3.58398 7.98535 7.96777 7.98535z
M383.486 354.08c0 -4.40039 -3.58301 -7.9668 -7.9668 -7.9668c-4.40039 0 -7.96777 3.58398 -7.96777 7.9668v85.9531c-0.015625 4.38281 3.56738 7.9668 7.9502 7.9668c4.40039 0 7.96777 -3.58398 7.96777 -7.9668v-85.9531h0.0166016zM144.462 354.08
c0 -4.40039 -3.58301 -7.9668 -7.9668 -7.9668c-4.40039 0 -7.9668 3.58398 -7.9668 7.9668v85.9531c-0.015625 4.38281 3.56738 7.9668 7.9502 7.9668c4.40039 0 7.9834 -3.58398 7.9834 -7.9668v-85.9531zM136.479 408.115c4.40039 0 7.9668 -3.56641 7.9668 -7.9668
s-3.58301 -7.9668 -7.9668 -7.9668h-86.3018c-9.0498 0 -17.3506 -3.7666 -23.4004 -9.80078l-0.382812 -0.383789c-5.7998 -5.9668 -9.41699 -14.1328 -9.41699 -23v-36.5518h478.033v36.5518c0 9.08301 -3.76758 17.3672 -9.78418 23.3838l-0.382812 0.399414
c-5.98535 5.7998 -14.1504 9.40039 -23.0342 9.40039h-54.4863c-4.39941 0 -7.9668 3.58398 -7.9668 7.9668c0 4.40039 3.58301 7.96777 7.9668 7.96777h54.4863c13.1338 0 25.251 -5.35059 34.1338 -13.9678l0.549805 -0.499023
c8.88379 -8.90039 14.4521 -21.168 14.4521 -34.6514v-44.3008v-0.216797c0 -4.40039 -3.58398 -7.96777 -7.96777 -7.96777h-493.752h-0.216797c-4.38379 -0.0166016 -7.9668 3.56738 -7.9668 7.96777v44.5176c0 13.1504 5.34961 25.2344 13.9668 34.1182l0.5 0.549805
c8.91699 8.91699 21.2012 14.4668 34.668 14.4668h86.3018l0.000976562 -0.0166016v0zM375.503 408.115c4.40039 0 7.9834 -3.56641 7.9668 -7.9668c0 -4.38281 -3.56738 -7.9668 -7.96777 -7.9668h-207.173c-4.38281 0 -7.9668 3.56641 -7.9668 7.9668
s3.56641 7.9668 7.9668 7.9668h207.174z" />
    <glyph glyph-name="uniF106" unicode="&#xf106;" 
d="M456.146 448c30.8037 0 55.8545 -25.0508 55.8545 -55.8545s-25.0508 -55.8545 -55.8545 -55.8545c-14.4199 0 -27.5361 5.53906 -37.4502 14.541l-89.9727 -89.9727c9.81152 -12.6143 15.7139 -28.4023 15.7139 -45.5869s-5.90234 -32.9727 -15.7139 -45.5957
l71.3916 -71.3916c5.53906 3.27734 11.9062 5.27832 18.7949 5.27832c20.5361 0 37.2363 -16.7002 37.2363 -37.2363s-16.7002 -37.2363 -37.2363 -37.2363s-37.2363 16.7002 -37.2363 37.2363c0 6.88867 2.00098 13.2559 5.28711 18.8047l-71.3906 71.3916
c-10.2959 -8.00586 -22.7148 -13.3682 -36.2871 -15.0723v-94.5801c26.3721 -4.45898 46.5449 -27.3965 46.5449 -55.0166c0 -30.8037 -25.0508 -55.8545 -55.8545 -55.8545s-55.8545 25.0508 -55.8545 55.8545c0 27.6299 20.1729 50.5674 46.5459 55.0166v94.5801
c-13.5732 1.7041 -25.9912 7.06641 -36.2871 15.0723l-119.426 -119.427c4.30957 -7.92188 6.75781 -16.9893 6.75781 -26.624c0 -30.8037 -25.0508 -55.8545 -55.8545 -55.8545s-55.8545 25.0508 -55.8545 55.8545s25.0508 55.8545 55.8545 55.8545
c14.4199 0 27.5361 -5.53906 37.46 -14.541l117.891 117.9c-9.8125 12.6133 -15.7139 28.4014 -15.7139 45.5859s5.90137 32.9727 15.7139 45.5967l-71.3916 71.3906c-5.53906 -3.27637 -11.9062 -5.27832 -18.7949 -5.27832c-20.5361 0 -37.2363 16.7012 -37.2363 37.2363
c0 20.5361 16.7002 37.2363 37.2363 37.2363c20.5352 0 37.2363 -16.7002 37.2363 -37.2363c0 -6.88867 -2.00195 -13.2559 -5.27832 -18.7949l71.3916 -71.3916c12.623 9.8125 28.4111 15.7139 45.5957 15.7139s32.9727 -5.90137 45.5859 -15.7227l91.499 91.499
c-4.30957 7.92188 -6.75781 16.9893 -6.75781 26.624c0 30.8037 25.0508 55.8545 55.8545 55.8545zM102.4 364.218c0 -10.2676 8.34961 -18.6182 18.6182 -18.6182c10.2676 0 18.6182 8.35059 18.6182 18.6182c0 10.2686 -8.35059 18.6182 -18.6182 18.6182
c-10.2686 0 -18.6182 -8.34961 -18.6182 -18.6182zM55.8545 -26.7637c20.5361 0 37.2363 16.7002 37.2363 37.2363s-16.7002 37.2363 -37.2363 37.2363s-37.2363 -16.7002 -37.2363 -37.2363s16.7002 -37.2363 37.2363 -37.2363zM307.2 -8.14551
c0 20.5361 -16.7012 37.2363 -37.2363 37.2363c-20.5361 0 -37.2363 -16.7002 -37.2363 -37.2363s16.7002 -37.2363 37.2363 -37.2363c20.5352 0 37.2363 16.7002 37.2363 37.2363zM269.964 159.418c30.8037 0 55.8545 25.0508 55.8545 55.8545
s-25.0508 55.8545 -55.8545 55.8545s-55.8545 -25.0508 -55.8545 -55.8545s25.0508 -55.8545 55.8545 -55.8545zM437.527 66.3271c0 10.2676 -8.35059 18.6182 -18.6182 18.6182s-18.6182 -8.35059 -18.6182 -18.6182s8.35059 -18.6182 18.6182 -18.6182
s18.6182 8.35059 18.6182 18.6182zM456.146 354.909c20.5361 0 37.2363 16.7002 37.2363 37.2363s-16.7002 37.2363 -37.2363 37.2363s-37.2363 -16.7002 -37.2363 -37.2363s16.7002 -37.2363 37.2363 -37.2363z" />
    <glyph glyph-name="uniF109" unicode="&#xf109;" 
d="M224.004 147.889c0 1.52441 0.114258 3.02148 0.323242 4.4873l-121.811 50.2207c-4.08301 1.68359 -6.02832 6.35645 -4.34473 10.4395c1.68164 4.08301 6.35547 6.0293 10.4395 4.34473l121.855 -50.2383c5.8457 7.7334 15.1152 12.7412 25.5352 12.7412
c4.41504 0 7.99512 -3.58008 7.99512 -7.99609c0 -4.41504 -3.58008 -7.99512 -7.99512 -7.99512c-6.11621 0 -11.4365 -3.4502 -14.1299 -8.50488c-0.0996094 -0.476562 -0.240234 -0.950195 -0.431641 -1.41699
c-0.199219 -0.481445 -0.451172 -0.920898 -0.726562 -1.34082c-0.46582 -1.49805 -0.717773 -3.09082 -0.717773 -4.74121c0 -8.8252 7.17871 -16.0049 16.0049 -16.0049c8.8252 0 16.0039 7.17969 16.0039 16.0049c0 4.41602 3.58008 7.99609 7.99609 7.99609
s7.99609 -3.58008 7.99609 -7.99609c0 -17.6426 -14.3535 -31.9961 -31.9961 -31.9961c-17.6436 0 -31.9971 14.3535 -31.9971 31.9961zM437.02 328.907c48.3516 -48.3516 74.9805 -112.639 74.9814 -181.021c0 -50.0742 -14.5107 -98.6211 -41.9639 -140.394
c-2.42578 -3.68945 -7.38379 -4.71387 -11.0732 -2.29004c-3.69043 2.4248 -4.7168 7.38281 -2.29102 11.0723c6.83008 10.3906 12.7949 21.2324 17.8877 32.4268l-22.0576 9.13672c-4.0791 1.69043 -6.01758 6.36816 -4.32715 10.4473
c1.69043 4.08008 6.36816 6.01562 10.4473 4.32812l22.0723 -9.14355c9.16309 24.3486 14.3096 50.1133 15.1768 76.4209h-23.8662c-4.41504 0 -7.99609 3.58008 -7.99609 7.99609s3.58105 7.99609 7.99609 7.99609h23.8584
c-0.861328 26.4941 -5.99902 52.2422 -15.083 76.4551l-22.1572 -9.17773c-1 -0.415039 -2.03711 -0.610352 -3.05762 -0.610352c-3.13672 0 -6.11426 1.85742 -7.38965 4.9375c-1.69043 4.0791 0.248047 8.75684 4.32715 10.4473l22.1572 9.17773
c-10.6982 23.5459 -25.2725 45.3857 -43.3965 64.7295l-16.8711 -16.8711c-1.56152 -1.56152 -3.60742 -2.3418 -5.6543 -2.3418s-4.09277 0.780273 -5.6543 2.3418c-3.12305 3.12207 -3.12305 8.18457 0 11.3066l16.8711 16.8711
c-19.3428 18.126 -41.1816 32.7002 -64.7275 43.3975l-9.17871 -22.1572c-1.27539 -3.07812 -4.25195 -4.9375 -7.38965 -4.9375c-1.02051 0 -2.05664 0.195312 -3.05762 0.610352c-4.08008 1.69043 -6.01758 6.36816 -4.32715 10.4473l9.17773 22.1582
c-24.2129 9.08398 -49.9619 14.2207 -76.4561 15.083v-23.8564c0 -4.41602 -3.58008 -7.99609 -7.99512 -7.99609c-4.41602 0 -7.99609 3.58008 -7.99609 7.99609v23.8584c-26.4941 -0.862305 -52.2432 -5.99902 -76.4561 -15.083l9.17871 -22.1572
c1.68945 -4.08008 -0.248047 -8.75781 -4.32812 -10.4482c-1.00098 -0.414062 -2.03711 -0.610352 -3.05762 -0.610352c-3.13672 0 -6.11426 1.8584 -7.38965 4.9375l-9.17871 22.1572c-23.5459 -10.6982 -45.3848 -25.2725 -64.7285 -43.3975l16.8711 -16.8711
c3.12305 -3.12207 3.12305 -8.18457 0 -11.3066c-1.56152 -1.56152 -3.60742 -2.3418 -5.6543 -2.3418s-4.09277 0.780273 -5.6543 2.3418l-16.8711 16.8711c-18.125 -19.3438 -32.6992 -41.1836 -43.3965 -64.7295l22.1572 -9.17773
c4.0791 -1.69043 6.01758 -6.36816 4.32715 -10.4473c-1.27539 -3.0791 -4.25293 -4.9375 -7.38965 -4.9375c-1.02051 0 -2.05664 0.195312 -3.05762 0.610352l-22.1572 9.17773c-9.08398 -24.2129 -14.2217 -49.9609 -15.083 -76.4551h23.8584
c4.41602 0 7.99609 -3.58008 7.99609 -7.99609s-3.58008 -7.99609 -7.99609 -7.99609h-23.8672c0.868164 -26.3076 6.01367 -52.0723 15.1768 -76.4209l22.0723 9.14355c4.0791 1.68848 8.75781 -0.24707 10.4473 -4.32812
c1.69043 -4.0791 -0.248047 -8.75684 -4.32715 -10.4473l-22.0576 -9.13672c5.09277 -11.1934 11.0576 -22.0361 17.8877 -32.4268c2.4248 -3.68945 1.39941 -8.64746 -2.29102 -11.0723c-1.35352 -0.888672 -2.87598 -1.31445 -4.38379 -1.31445
c-2.60254 0 -5.15332 1.26758 -6.68945 3.60449c-27.4521 41.7734 -41.9639 90.3203 -41.9639 140.394c0 68.3799 26.6279 132.667 74.9805 181.019s112.639 74.9805 181.021 74.9805c68.3799 0 132.667 -26.6289 181.019 -74.9805zM327.828 60.0684
c13.2256 0 23.9873 -10.7598 23.9873 -23.9873v-31.9824c0 -13.2266 -10.7617 -23.9883 -23.9873 -23.9883h-143.925c-13.2256 0 -23.9873 10.7617 -23.9873 23.9883v31.9824c0 13.2266 10.7617 23.9873 23.9873 23.9873h143.925zM335.823 4.09863v31.9824
c0 4.40918 -3.58691 7.99609 -7.99512 7.99609h-143.925c-4.4082 0 -7.99609 -3.58691 -7.99609 -7.99609v-31.9824c0 -4.40918 3.58789 -7.99609 7.99609 -7.99609h143.925c4.4082 0 7.99512 3.58691 7.99512 7.99609zM263.861 28.0859
c4.41602 0 7.99609 -3.58008 7.99609 -7.99609s-3.58008 -7.99609 -7.99609 -7.99609h-15.9912c-4.41602 0 -7.99609 3.58008 -7.99609 7.99609s3.58008 7.99609 7.99609 7.99609h15.9912zM223.883 28.0859c4.41504 0 7.99512 -3.58008 7.99512 -7.99609
s-3.58008 -7.99609 -7.99512 -7.99609h-15.9922c-4.41602 0 -7.99609 3.58008 -7.99609 7.99609s3.58008 7.99609 7.99609 7.99609h15.9922zM303.841 28.0859c4.41504 0 7.99512 -3.58008 7.99512 -7.99609s-3.58008 -7.99609 -7.99512 -7.99609h-15.9922
c-4.41602 0 -7.99609 3.58008 -7.99609 7.99609s3.58008 7.99609 7.99609 7.99609h15.9922z" />
    <glyph glyph-name="uniF10E" unicode="&#xf10e;" 
d="M413.334 292.233c0 4.41699 3.58203 8 7.99902 8s8.00098 -3.59961 8.00098 -8v-306.9c0 -13.5498 -5.56738 -25.8838 -14.501 -34.833c-8.93262 -8.93359 -21.2832 -14.5 -34.833 -14.5h-248c-13.5498 0 -25.916 5.56641 -34.833 14.5
c-8.93359 8.93262 -14.5 21.2656 -14.5 34.833v306.9c0 4.41699 3.58301 8 8 8c4.41602 0 8 -3.59961 8 -8v-306.9c0 -9.13379 3.7666 -17.4834 9.7998 -23.5166s14.3838 -9.81641 23.5166 -9.81641h248.001c9.13379 0 17.4658 3.78418 23.5 9.81641
c6.0498 6.05078 9.81543 14.3838 9.81543 23.5v306.917h0.0341797zM196.333 6c0 -4.41699 -3.58301 -8 -8 -8s-8 3.58301 -8 8v284.167c0 4.41602 3.58301 8 8 8s8 -3.58398 8 -8v-284.167zM264 6c0 -4.41699 -3.58203 -8 -7.99902 -8s-8 3.58301 -8 8v284.167
c0 4.41602 3.58301 8 8 8s7.99902 -3.58398 7.99902 -8v-284.167zM331.684 6c0 -4.41699 -3.58203 -8 -7.99902 -8c-4.41797 0 -8 3.58301 -8 8v284.167c0 4.41602 3.58203 8 8 8c4.41699 0 7.99902 -3.58398 7.99902 -8v-284.167v0zM191.667 398.667
c0 -4.41699 -3.58398 -8.00098 -8.00098 -8.00098c-4.41602 0 -7.99902 3.58398 -7.99902 8.00098c0 13.583 5.5498 25.916 14.4834 34.8496s21.2666 14.4834 34.8496 14.4834h62c13.5674 0 25.9004 -5.56641 34.833 -14.5c8.93262 -8.93262 14.5 -21.2998 14.5 -34.833
c0 -4.41699 -3.58301 -8.00098 -7.99902 -8.00098c-4.41699 0 -8 3.58398 -8 8.00098c0 9.13281 -3.7666 17.4834 -9.7998 23.5166c-6.03516 6.0332 -14.3838 9.81641 -23.5166 9.81641h-62c-9.14941 0 -17.4834 -3.7666 -23.5332 -9.7998
c-6.05176 -6.0498 -9.81738 -14.3838 -9.81738 -23.5332zM70 375.667h372c7.84863 0 15.0156 -3.2168 20.2158 -8.41699l0.0332031 -0.0332031c5.2002 -5.2002 8.41699 -12.3672 8.41699 -20.2168v-20.667c0 -4.41602 -3.58301 -7.99902 -8 -7.99902h-0.216797h-413.116
c-4.41602 0 -8 3.58301 -8 7.99902v0.200195v20.4668c0 7.83301 3.2168 15.0166 8.41699 20.2168l0.0341797 0.0332031c5.19922 5.2002 12.3818 8.41699 20.2158 8.41699v0zM442 359.667h-372c-3.4834 0 -6.66699 -1.41699 -8.93359 -3.7002l-0.0332031 -0.0332031
c-2.28418 -2.2666 -3.7002 -5.43359 -3.7002 -8.93359v-12.667h397.316v12.667c0 3.4834 -1.41699 6.66699 -3.69922 8.93359l-0.0341797 0.0332031c-2.26562 2.2832 -5.43262 3.7002 -8.91602 3.7002z" />
    <glyph glyph-name="uniF10C" unicode="&#xf10c;" 
d="M503.392 336.797c11.4775 -11.4775 11.4775 -30.9014 -0.000976562 -42.3799l-75.9297 -75.9297c-11.4775 -11.4785 -30.9014 -11.4785 -42.3799 0l-40.6133 40.6133l-58.2725 -58.2715l73.2822 -73.2812c1.76465 -1.7666 2.64844 -5.29785 2.64844 -7.94629
l-27.3701 -147.446c-2.64844 -10.5957 -9.71191 -19.4248 -18.541 -23.8389c-5.29785 -2.64844 -10.5947 -3.53223 -15.8926 -3.53223s-9.71191 0.883789 -15.0098 3.53223c-15.0098 7.0625 -23.8389 23.8389 -19.4248 41.4971l15.8936 102.417l-52.9746 55.623
l-63.5693 -67.9834c-1.76562 -1.76465 -3.53223 -2.64844 -6.18066 -2.64844h-123.607c-9.71191 0 -18.541 4.41504 -25.6045 10.5947c-7.06348 7.06348 -10.5947 16.7764 -9.71191 26.4883c0.883789 18.541 16.7764 33.5508 37.082 33.5508h82.9932l134.2 150.093h-20.3066
l-57.3887 -60.9199c-5.29785 -6.18066 -13.2432 -9.71191 -22.0723 -9.71191c-8.83008 0 -16.7754 3.53125 -22.0732 9.71191c-10.5947 11.4775 -9.71191 30.9014 1.7666 43.2617l81.2275 77.6963c0.882812 0.883789 2.64941 1.7666 5.29785 1.7666h96.2373
c8.83008 0 16.7764 -3.53125 22.9561 -8.8291l64.4531 -60.0371c2.64941 -2.64844 6.18066 -2.64844 8.8291 0l45.9111 46.7939c11.4775 11.4775 31.7842 11.4775 43.2627 0zM491.03 306.778c4.41504 4.41406 4.41504 12.3604 0.000976562 16.7744l-0.882812 0.882812
c-4.41504 4.41504 -13.2432 4.41504 -17.6582 0l-45.9121 -46.7939c-8.8291 -8.8291 -23.8389 -9.71191 -33.5508 -0.882812l-64.4512 60.0381c-2.64844 2.64844 -7.06348 4.41504 -10.5947 4.41504h-93.5879l-78.5801 -75.0469
c-5.29785 -5.29785 -5.29785 -13.2432 -0.882812 -18.541c2.64844 -2.64844 6.17969 -4.41504 9.71191 -4.41504c3.53125 0 7.0625 1.7666 8.8291 4.41504l60.0381 63.5693c1.76562 1.76562 4.41406 2.64844 6.18066 2.64844h44.1455
c3.53125 0 7.0625 -1.76562 7.94629 -5.29785c0.881836 -3.53125 0.881836 -7.0625 -1.7666 -9.71094l-150.095 -167.753c-1.76465 0 -3.53125 -0.882812 -6.17969 -0.882812h-86.5244c-10.5957 0 -19.4248 -7.06348 -19.4248 -16.7754
c0 -5.29688 1.7666 -9.71094 4.41504 -13.2432c3.53125 -3.53125 7.94531 -5.29785 13.2432 -5.29785h120.075l67.1016 71.5156c0.881836 1.76465 3.53125 2.64844 6.17969 2.64844s4.41406 -0.882812 6.18066 -2.64844l62.6865 -65.335
c1.76465 -1.76562 2.64844 -4.41504 2.64844 -7.06348l-16.7754 -107.716c-1.76562 -9.71094 1.76562 -18.541 9.71191 -22.0723c5.29785 -2.64844 10.5947 -1.7666 15.0098 0c4.41406 2.64844 7.94531 7.06348 9.71191 11.4775l26.4873 142.148l-75.9297 75.9297
c-2.64844 2.64844 -3.53223 4.41504 -3.53223 7.06348s0.881836 4.41406 2.64844 6.17969l70.6328 70.6328c3.53223 3.53223 8.83008 3.53223 12.3613 0l46.7939 -46.7939c4.41504 -4.41406 12.3604 -4.41406 17.6582 0zM406.271 333.266
c-29.1367 0 -52.9756 23.8369 -52.9756 52.9736s23.8389 52.9756 52.9756 52.9756c29.1357 0 52.9746 -23.8369 52.9746 -52.9746c0 -29.1367 -23.8389 -52.9746 -52.9746 -52.9746zM406.271 421.557c-19.4238 0 -35.3164 -15.8926 -35.3164 -35.3164
c0 -19.4229 15.8926 -35.3154 35.3164 -35.3154c19.4229 0 35.3154 15.8916 35.3154 35.3154s-15.8916 35.3164 -35.3154 35.3164z" />
    <glyph glyph-name="uniF105" unicode="&#xf105;" 
d="M511.882 332.312c0.00292969 -0.0898438 0.0146484 -0.180664 0.0117188 -0.271484v-387.634c0 -4.46191 -3.61621 -8.0791 -8.07812 -8.0791h-274.805c-0.709961 -0.208984 -1.45703 -0.326172 -2.23242 -0.326172h-74.6074h-67.5859h-12.3018
c-4.46289 0 -8.0791 3.61621 -8.0791 8.0791s3.61719 8.0791 8.0791 8.0791h12.3018h67.585h66.5303v32.1436c0 34.0195 -27.2793 43.5791 -27.5557 43.6719c-0.144531 0.0488281 -0.291016 0.101562 -0.433594 0.15918l-44.2002 17.7256l-22.7119 -23.5713
c-1.49219 -1.54883 -3.53906 -2.43945 -5.68848 -2.47168c-0.0429688 -0.000976562 -0.0859375 -0.000976562 -0.12793 -0.000976562c-2.10547 0 -4.12891 0.821289 -5.6377 2.29199l-23.2236 22.6201c-0.235352 0.231445 -0.448242 0.474609 -0.651367 0.724609
l-44.2793 -17.3428c-0.124023 -0.0498047 -0.248047 -0.0947266 -0.374023 -0.136719c-1.08105 -0.378906 -27.5537 -10.0293 -27.5537 -43.6719v-32.1436h27.6592c4.46289 0 8.0791 -3.61621 8.0791 -8.0791s-3.61621 -8.0791 -8.0791 -8.0791h-35.7402
c-4.46289 0 -8.0791 3.62695 -8.0791 8.08887v40.2129c0 36.2266 24.9736 54.3242 38.3633 58.9199l48.2129 18.8818v10.2783c-12.9482 7.04004 -22.7705 19.1104 -26.8604 33.5635c-0.0722656 -0.000976562 -0.142578 -0.0117188 -0.214844 -0.0117188
c-15.7686 0 -28.5986 12.8281 -28.5986 28.5957c0 9.5 4.66113 17.9268 11.8125 23.1309v21.3984c0 38.9688 30.9141 70.8369 69.5029 72.4082v188.455c0 4.46289 3.61523 8.0791 8.0791 8.0791h275.537c0.0849609 0 0.166016 -0.00976562 0.24707 -0.0117188
c0.106445 -0.00292969 0.208984 -0.00683594 0.31543 -0.0166016c0.318359 -0.0205078 0.632812 -0.0566406 0.943359 -0.115234c0.0341797 -0.00683594 0.0693359 -0.0126953 0.102539 -0.0185547c0.327148 -0.0664062 0.646484 -0.158203 0.958984 -0.264648
c0.09375 -0.03125 0.18457 -0.0654297 0.277344 -0.0996094c0.299805 -0.110352 0.592773 -0.236328 0.875977 -0.384766c0.0253906 -0.0136719 0.0537109 -0.0224609 0.0791016 -0.0380859c0.305664 -0.163086 0.595703 -0.350586 0.879883 -0.553711
c0.0751953 -0.0527344 0.147461 -0.107422 0.219727 -0.163086c0.283203 -0.216797 0.558594 -0.446289 0.813477 -0.700195l45.5283 -45.5283l62.3525 -62.3535c0.253906 -0.254883 0.483398 -0.530273 0.700195 -0.813477
c0.0527344 -0.0722656 0.105469 -0.144531 0.158203 -0.217773c0.204102 -0.28418 0.394531 -0.578125 0.558594 -0.884766c0.00878906 -0.0175781 0.015625 -0.0371094 0.0244141 -0.0546875c0.154297 -0.293945 0.285156 -0.598633 0.400391 -0.908203
c0.0322266 -0.0839844 0.0625 -0.166992 0.0908203 -0.250977c0.112305 -0.330078 0.208984 -0.664062 0.277344 -1.00488c0.000976562 -0.00292969 0.000976562 -0.0078125 0.000976562 -0.0107422c0.0664062 -0.336914 0.103516 -0.678711 0.12793 -1.02344
c0.00488281 -0.0898438 0.00976562 -0.178711 0.0126953 -0.271484zM404.016 420.416h0.000976562v-80.2979h80.2979l-20.7568 20.7559c-0.00390625 0.00292969 -0.00683594 0.0078125 -0.00976562 0.0107422l-27.7949 27.7949l-6.45312 6.45215
c-0.00390625 0.00390625 -0.00878906 0.0078125 -0.0126953 0.0117188zM57.7236 122.249h-0.000976562v24.5586c-0.158203 -0.0224609 -0.320312 -0.0429688 -0.479492 -0.0712891c-1.42285 -1.81152 -3.60156 -2.99316 -6.06152 -3.0791
c-2.46484 -2.27539 -4.01855 -5.51953 -4.01855 -9.12891c0 -6.21875 4.59277 -11.3691 10.5605 -12.2793zM65.835 169.232c0.648438 0 47.4883 0.293945 68.7734 29.7148c1.85938 2.57129 5.05469 3.81836 8.16504 3.17969
c3.11035 -0.635742 5.56055 -3.03418 6.26074 -6.12988c0.0478516 -0.203125 5.55957 -22.9629 23.165 -26.9668c0.0722656 -0.0175781 0.140625 -0.0410156 0.211914 -0.0605469c0.173828 -0.0439453 0.344727 -0.0878906 0.512695 -0.143555
c0.0986328 -0.0332031 0.193359 -0.0703125 0.289062 -0.106445c0.152344 -0.0556641 0.301758 -0.111328 0.448242 -0.176758c0.114258 -0.0478516 0.220703 -0.102539 0.330078 -0.158203c0.123047 -0.0605469 0.246094 -0.121094 0.365234 -0.186523
c0.119141 -0.0673828 0.237305 -0.142578 0.353516 -0.214844c0.100586 -0.0654297 0.203125 -0.126953 0.300781 -0.195312c0.121094 -0.0839844 0.236328 -0.172852 0.350586 -0.261719c0.0888672 -0.0703125 0.179688 -0.139648 0.266602 -0.212891
c0.110352 -0.0927734 0.213867 -0.189453 0.318359 -0.288086c0.0859375 -0.0810547 0.171875 -0.162109 0.254883 -0.24707c0.0917969 -0.0957031 0.179688 -0.194336 0.267578 -0.294922c0.0859375 -0.0976562 0.170898 -0.195312 0.25293 -0.296875
c0.0732422 -0.0927734 0.143555 -0.189453 0.212891 -0.285156c0.0195312 -0.0263672 0.0390625 -0.0517578 0.0576172 -0.0771484v13.2334c0 31.0586 -25.2676 56.3252 -56.3242 56.3252h-5.36719c-31.0576 0 -56.3262 -25.2666 -56.3262 -56.3281v-13.5996
c0.0478516 0.0751953 0.0908203 0.155273 0.140625 0.227539c0.0488281 0.0722656 0.105469 0.140625 0.158203 0.210938c0.100586 0.138672 0.197266 0.27832 0.306641 0.408203c0.0527344 0.0644531 0.111328 0.121094 0.166016 0.182617
c0.115234 0.131836 0.230469 0.265625 0.354492 0.389648c0.0566406 0.0546875 0.116211 0.102539 0.172852 0.157227c0.131836 0.123047 0.261719 0.249023 0.400391 0.361328c0.0576172 0.0488281 0.119141 0.0888672 0.176758 0.133789
c0.146484 0.113281 0.291016 0.227539 0.445312 0.332031c0.0605469 0.0400391 0.123047 0.0712891 0.18457 0.110352c0.15625 0.100586 0.314453 0.201172 0.479492 0.291992c0.0732422 0.0400391 0.152344 0.0722656 0.226562 0.109375
c0.15625 0.078125 0.313477 0.160156 0.476562 0.228516c0.105469 0.0449219 0.21582 0.078125 0.324219 0.118164c0.138672 0.0517578 0.274414 0.108398 0.416992 0.152344c0.134766 0.0419922 0.274414 0.0732422 0.414062 0.106445
c0.120117 0.03125 0.236328 0.0673828 0.358398 0.0927734c0.178711 0.0371094 0.360352 0.0585938 0.541992 0.0830078c0.0869141 0.0117188 0.171875 0.0292969 0.258789 0.0390625c0.270508 0.0263672 0.546875 0.0419922 0.824219 0.0419922h0.0302734h0.00292969z
M133.374 56.4648h0.00195312v10.1953c-3.29297 -0.614258 -6.68164 -0.951172 -10.1514 -0.951172h-10.2354c-3.46973 0 -6.8584 0.336914 -10.1523 0.951172v-12.7354l14.9619 -14.5752l15.5752 16.1631v0.920898v0.03125zM123.224 81.8662
c21.5635 0 39.1045 17.541 39.1035 39.1035v34.3086c-12.2344 5.00684 -19.6875 15.2139 -23.9717 23.6787c-20.959 -19.4121 -50.3633 -24.2646 -64.4736 -25.4766v-32.5107c0 -21.5615 17.542 -39.1035 39.1064 -39.1035h10.2354zM495.738 -47.5156h0.000976562v371.477
h-99.8008c-4.46387 0 -8.0791 3.61621 -8.0791 8.0791v99.8018h-259.381v-180.727c36.3066 -3.91016 64.6729 -34.7305 64.6729 -72.0576v-21.4814c7.08496 -5.21094 11.6924 -13.6006 11.6924 -23.0479c0 -15.7188 -12.751 -28.5127 -28.4531 -28.5918
c-4.09082 -14.4492 -13.9121 -26.5166 -26.8574 -33.5547v-10.3252l46.9932 -18.8457c13.3975 -4.61328 38.332 -22.7109 38.332 -58.9092v-31.8174h260.88zM178.484 122.304c5.79199 1.06055 10.1992 6.13281 10.1992 12.2236c0 3.73242 -1.65918 7.07617 -4.27148 9.35938
c-2.17676 0.176758 -4.10742 1.21191 -5.45508 2.77246c-0.155273 0.0351562 -0.314453 0.0654297 -0.47168 0.0947266h-0.000976562v-24.4502zM217.69 293.178c-4.46387 0 -8.0791 3.61816 -8.0791 8.0791c0 4.46289 3.61523 8.0791 8.0791 8.0791h127.492
c4.46387 0 8.0791 -3.61621 8.0791 -8.0791s-3.61523 -8.0791 -8.0791 -8.0791h-127.492zM209.611 245.886c0 4.46289 3.61523 8.0791 8.0791 8.0791h192.599c4.46191 0 8.0791 -3.61621 8.0791 -8.0791s-3.61621 -8.0791 -8.0791 -8.0791h-192.599
c-4.46387 0 -8.0791 3.61621 -8.0791 8.0791zM410.289 198.593c4.46191 0 8.08008 -3.61719 8.0791 -8.0791c0 -4.46289 -3.61621 -8.0791 -8.0791 -8.0791h-192.599c-4.46387 0 -8.0791 3.61621 -8.0791 8.0791s3.61523 8.0791 8.0791 8.0791h192.599zM410.289 143.22
c4.46191 0 8.08008 -3.61719 8.0791 -8.0791c0 -4.46289 -3.61621 -8.0791 -8.0791 -8.0791h-192.599c-4.46387 0 -8.0791 3.61621 -8.0791 8.0791s3.61523 8.0791 8.0791 8.0791h192.599zM410.289 87.8477c4.46191 0 8.08008 -3.61621 8.0791 -8.0791
c0 -4.46289 -3.61621 -8.07812 -8.0791 -8.07812h-192.599c-4.46387 0 -8.0791 3.61523 -8.0791 8.07812c0 4.46387 3.61523 8.0791 8.0791 8.0791h192.599z" />
    <glyph glyph-name="uniF107" unicode="&#xf107;" 
d="M142.316 334.333c4.41699 0 8 -3.58301 8 -8c0 -4.41602 -3.58301 -8 -8 -8h-12.6494v-314.666h252.666v314.666h-12.666c-4.41699 0 -8 3.58398 -8 8c0 4.41699 3.58301 8 8 8h20.4658h0.200195c4.41699 0 8 -3.58301 8 -8v-330.465v-0.217773
c0 -4.41602 -3.58301 -8 -8 -8h-268.467h-0.200195c-4.41699 0 -8 3.58398 -8 8v330.482v0.200195c0 4.41699 3.58301 8 8 8h20.6504zM214.666 416.967c4.40039 0 7.9668 -3.56641 7.9668 -7.9668c0 -4.39941 -3.56641 -7.96582 -7.9668 -7.96582h-23v-66.7012h128.667
v66.7012l-23 0.015625c-4.40137 0 -7.9668 3.56738 -7.9668 7.9668c0 4.40039 3.56738 7.9668 7.9668 7.9668l30.1826 -0.0166016l0.817383 0.0332031c4.41699 0 8 -3.58301 8 -8v-82.4658v-0.201172c0 -4.41602 -3.58301 -8 -8 -8h-144.466h-0.201172
c-4.41602 0 -8 3.58398 -8 8v82.667h0.0341797c0 4.40039 3.56641 7.9668 7.96582 7.9668h31zM245.649 246c-4.41699 0 -8 3.58301 -8 8c0 4.41602 3.58301 8 8 8h103.351c4.41602 0 8 -3.58398 8 -8c0 -4.41699 -3.58398 -8 -8 -8h-103.351v0zM245.649 60
c-4.41699 0 -8 3.58301 -8 8c0 4.41602 3.58301 8 8 8h103.351c4.41602 0 8 -3.58398 8 -8c0 -4.41699 -3.58398 -8 -8 -8h-103.351v0zM245.649 122c-4.41699 0 -8 3.58398 -8 8c0 4.41699 3.58301 8 8 8h103.351c4.41602 0 8 -3.58301 8 -8c0 -4.41602 -3.58398 -8 -8 -8
h-103.351v0zM245.649 184c-4.41699 0 -8 3.58301 -8 8s3.58301 8 8 8h103.351c4.41602 0 8 -3.60059 8 -8c0 -4.41699 -3.58398 -8 -8 -8h-103.351zM165.666 254.383c-2.63281 3.51758 -1.91699 8.5166 1.60059 11.167c3.5166 2.63379 8.5166 1.91699 11.1494 -1.60059
l5.25 -7l16.8672 22.501c2.63281 3.51562 7.64941 4.23242 11.167 1.59961c3.51562 -2.63281 4.23242 -7.64941 1.59961 -11.1504l-23.167 -30.8828l-0.0830078 -0.117188c-0.450195 -0.599609 -0.966797 -1.13281 -1.60059 -1.59961
c-3.5166 -2.63281 -8.5166 -1.91699 -11.1494 1.59961zM165.666 192.384c-2.63281 3.5166 -1.91699 8.51562 1.60059 11.166c3.5166 2.63379 8.5166 1.91699 11.1494 -1.59961l5.25 -7l16.8672 22.5c2.63281 3.51562 7.64941 4.23242 11.167 1.59961
c3.51562 -2.63281 4.23242 -7.64941 1.59961 -11.166l-23.167 -30.8828l-0.0830078 -0.117188c-0.450195 -0.599609 -0.966797 -1.13379 -1.60059 -1.60059c-3.5166 -2.63281 -8.5166 -1.91699 -11.1494 1.60059zM165.666 130.384
c-2.63281 3.5166 -1.91699 8.51758 1.60059 11.166c3.5166 2.63281 8.5166 1.91699 11.1494 -1.59961l5.25 -7l16.8672 22.5c2.63281 3.51562 7.64941 4.2334 11.167 1.60059c3.51562 -2.63281 4.23242 -7.65039 1.59961 -11.166l-23.167 -30.8828l-0.0830078 -0.117188
c-0.450195 -0.600586 -0.966797 -1.13379 -1.60059 -1.60059c-3.5166 -2.63281 -8.5166 -1.91602 -11.1494 1.60059zM165.666 68.3828c-2.63281 3.5166 -1.91699 8.51758 1.60059 11.166c3.5166 2.63281 8.5166 1.91699 11.1494 -1.59961l5.25 -7l16.8672 22.5
c2.63281 3.51562 7.64941 4.2334 11.167 1.60059c3.51562 -2.63281 4.23242 -7.64941 1.59961 -11.166l-23.167 -30.8828l-0.0830078 -0.117188c-0.450195 -0.600586 -0.966797 -1.13379 -1.60059 -1.60059c-3.5166 -2.63281 -8.5166 -1.91699 -11.1494 1.60059z
M142.333 386c4.41699 0 8 -3.58301 8 -8c0 -4.41602 -3.58301 -8 -8 -8h-51.666c-3.4502 0 -6.63379 -1.43262 -8.93359 -3.7334c-2.30078 -2.2998 -3.7334 -5.4834 -3.7334 -8.93359v-392.666c0 -3.48438 1.41602 -6.66699 3.7002 -8.93262l0.0332031 -0.0341797
c2.2666 -2.28223 5.4502 -3.7002 8.93359 -3.7002h330.666c3.5 0 6.66699 1.41602 8.93359 3.7002l0.0332031 0.0341797c2.2832 2.2666 3.7002 5.4502 3.7002 8.93262v392.666c0 3.4834 -1.41602 6.66699 -3.7002 8.93359l-0.015625 0.0166016l-0.0166016 -0.0166016
c-2.2998 2.30078 -5.4668 3.7334 -8.93262 3.7334h-51.667c-4.41699 0 -8 3.58398 -8 8c0 4.41699 3.58301 8 8 8h51.667c7.88281 0 15.0674 -3.23242 20.25 -8.41699l-0.0166016 -0.0166016c5.19922 -5.19922 8.43262 -12.3828 8.43262 -20.2334v-392.666
c0 -7.85059 -3.2168 -15.0166 -8.41602 -20.2158l-0.0341797 -0.0341797c-5.2002 -5.2002 -12.3672 -8.41699 -20.2158 -8.41699h-330.667c-7.84961 0 -15.0166 3.2168 -20.2158 8.41699l-0.0341797 0.0341797c-5.2002 5.19922 -8.41797 12.3662 -8.41797 20.2158v392.666
c0 7.88379 3.2334 15.0664 8.41699 20.25c5.18457 5.18359 12.3672 8.41699 20.25 8.41699h51.666zM256 448c6.45117 0 12.333 -2.64941 16.583 -6.88281l0.0341797 -0.0341797c4.23242 -4.24902 6.88281 -10.1162 6.88281 -16.583
c0 -6.4502 -2.65137 -12.333 -6.88281 -16.583l-0.0166016 -0.0166016l0.0166016 -0.0166016c-4.23438 -4.25 -10.1162 -6.88281 -16.6172 -6.88281c-6.5 0 -12.3828 2.64941 -16.6172 6.88281c-4.24902 4.2334 -6.88281 10.1328 -6.88281 16.6162
c0 6.4668 2.65039 12.334 6.90039 16.6006l-0.0175781 0.0166016c4.25 4.2334 10.1338 6.88281 16.6172 6.88281v0zM261.333 429.8l-0.0332031 0.0341797c-1.34961 1.33301 -3.2168 2.16699 -5.2998 2.16699c-2.06641 0 -3.9502 -0.850586 -5.2998 -2.2002
l-0.0166016 0.0166016l-0.0166016 -0.0166016c-1.31738 -1.31738 -2.16699 -3.2168 -2.16699 -5.2832c0 -2.06543 0.849609 -3.94922 2.19922 -5.2998c1.35059 -1.35059 3.2334 -2.2002 5.2998 -2.2002c2.06738 0 3.9502 0.849609 5.2998 2.2002l0.0166016 -0.0166016
c1.33301 1.34961 2.16699 3.2334 2.16699 5.31641c0.0175781 2.04883 -0.816406 3.93262 -2.14941 5.28223z" />
    <glyph glyph-name="uniF10D" unicode="&#xf10d;" 
d="M247.961 399.958c4.39941 0 7.99805 -3.58203 7.99805 -7.99805c0 -4.41504 -3.58203 -7.99805 -7.99805 -7.99805h-231.965v-288.049h479.843v288.049h-215.921c-4.41406 0 -7.99805 3.58301 -7.99805 7.99805c0 4.41602 3.58105 7.99805 7.99805 7.99805h223.718
h0.200195c4.41406 0 7.99805 -3.58203 7.99805 -7.99805v-303.844v-0.200195c0 -4.41406 -3.59961 -7.99805 -7.99805 -7.99805h-495.621h-0.216797c-4.41602 0 -7.99805 3.58203 -7.99805 7.99805v303.827v0.216797c0 4.41602 3.58203 7.99805 7.99805 7.99805h239.963z
M239.946 439.963c0 4.39844 3.56543 7.96387 7.96484 7.96387c4.38184 0 7.96387 -3.56543 7.96387 -7.96387l0.0341797 -47.9863c0 -4.39844 -3.56641 -7.96387 -7.96484 -7.96387s-7.96484 3.56543 -7.96484 7.96387zM239.963 56.0586
c0 4.39941 3.56543 7.96582 7.96484 7.96582c4.38184 0 7.96387 -3.56641 7.96387 -7.96582l-0.0166016 -80.0264c0 -4.38086 -3.56543 -7.96484 -7.96387 -7.96484c-4.39941 0 -7.96484 3.56641 -7.96484 7.96484zM128.262 58.2412
c1.2002 4.24902 5.61523 6.69824 9.86426 5.49902c4.24902 -1.20215 6.69824 -5.61523 5.49805 -9.86523l-31.9561 -112c-1.2002 -4.24902 -5.61523 -6.69922 -9.86426 -5.49805c-4.23242 1.2002 -6.69824 5.61523 -5.49805 9.86426zM352.213 53.875
c-1.19922 4.25 1.25 8.66309 5.49902 9.86523c4.23145 1.19922 8.66211 -1.25 9.86426 -5.49902l32.0234 -112c1.19922 -4.2334 -1.25 -8.66406 -5.49805 -9.86426c-4.25 -1.2002 -8.66406 1.24902 -9.86426 5.49805zM207.956 136.035
c0 -4.41504 -3.58301 -7.99902 -7.99805 -7.99902s-7.99805 3.58203 -7.99805 7.99902v103.97h-111.967v-103.969c0 -4.41406 -3.58203 -7.99805 -7.99805 -7.99805c-4.41504 0 -7.99805 3.58203 -7.99805 7.99805v111.767v0.200195
c0 4.41602 3.58301 7.99805 7.99805 7.99805h127.746h0.200195c4.41406 0 7.99707 -3.58203 7.99707 -7.99805v-111.967l0.0175781 -0.000976562v0zM463.831 136.035c0 -4.40039 -3.56641 -7.96582 -7.96484 -7.96582c-4.40039 0 -7.96582 3.56543 -7.96582 7.96582
l-0.0498047 135.977h-87.9395c-4.41504 0 -7.99805 3.58203 -7.99805 7.99805c0 4.41504 3.58105 7.99805 7.99805 7.99805h95.9053v-0.0341797c4.39844 0 7.96484 -3.56543 7.96484 -7.96387zM335.869 136.035c0 -4.40039 -3.56738 -7.96582 -7.96582 -7.96582
c-4.38086 0 -7.96484 3.56543 -7.96484 7.96582l-0.0175781 183.945h-111.982v-39.9873c0 -4.41602 -3.58203 -7.99805 -7.99707 -7.99805c-4.41602 0 -7.99805 3.58203 -7.99805 7.99805v47.7852v0.216797c0 4.41504 3.58203 7.99805 7.99805 7.99805h127.945v-0.0332031
c4.39844 0 7.96484 -3.56543 7.96484 -7.96484zM8.14746 47.9111c-4.41406 0 -7.99805 3.58203 -7.99805 7.99805s3.58301 7.99805 7.99805 7.99805h495.854c4.41406 0 7.99805 -3.58105 7.99805 -7.99805c0 -4.39844 -3.58203 -7.99805 -7.99805 -7.99805h-495.854z" />
    <glyph glyph-name="uniF102" unicode="&#xf102;" 
d="M231.25 88.75l94.1074 94.1074h-279.644c-5.05566 0 -9.14258 4.08691 -9.14258 9.14258s4.08691 9.14258 9.14258 9.14258h279.644l-94.1074 94.1074c-3.57422 3.5752 -3.57422 9.35352 0 12.9287c3.5752 3.57422 9.35352 3.57422 12.9287 0l109.705 -109.696
c0.84082 -0.850586 1.51758 -1.86523 1.9834 -2.99023c0.923828 -2.23926 0.923828 -4.75391 0 -6.98438c-0.46582 -1.125 -1.13379 -2.13965 -1.9834 -2.98047l-109.705 -109.706c-1.7832 -1.78223 -4.12402 -2.67871 -6.46484 -2.67871
c-2.33984 0 -4.68066 0.896484 -6.46387 2.67871c-3.57422 3.5752 -3.57422 9.35352 0 12.9287zM466.286 448c5.05566 0 9.14258 -4.08691 9.14258 -9.14258v-493.715c0 -5.05566 -4.08691 -9.14258 -9.14258 -9.14258h-338.286
c-5.05566 0 -9.14258 4.08691 -9.14258 9.14258v192c0 5.05664 4.08691 9.14355 9.14258 9.14355s9.14258 -4.08691 9.14258 -9.14355v-182.856h320v475.428h-320v-182.856c0 -5.05664 -4.08691 -9.14355 -9.14258 -9.14355s-9.14258 4.08691 -9.14258 9.14355v192
c0 5.05566 4.08691 9.14258 9.14258 9.14258h338.286z" />
    <glyph glyph-name="uniF101" unicode="&#xf101;" 
d="M213.956 288.854l76.3164 -224.604c11.3359 -27.8398 10.2598 -54.2764 -3.29395 -75.9629c-15.4619 -24.7451 -46.1875 -40.416 -84.2959 -42.9941c-2.46973 -0.163086 -4.94922 -0.253906 -7.44629 -0.253906h-87.2812
c-2.50586 0 -4.98535 0.0908203 -7.43652 0.253906c-38.2539 2.58789 -68.9424 18.502 -84.2061 43.6631c-13.1729 21.7139 -13.7881 48.9922 -1.72754 76.8496l68.5889 223.049h130.782zM271.625 -2.12402c10.3506 16.5664 10.9385 37.3301 1.70117 60.0664
l-72.335 212.816h-104.454l-65.1689 -211.73c-9.98926 -22.7998 -9.84375 -43.7812 0.407227 -60.6904c12.1689 -20.0586 37.6641 -32.8066 69.9463 -34.9961c2.05371 -0.135742 4.13477 -0.208008 6.22461 -0.208008h87.2812c2.08984 0 4.1709 0.0722656 6.23438 0.208008
c32.2363 2.18066 57.8135 14.7656 70.1631 34.5342zM78.125 370.001c-2.83105 8.20605 -8.15137 19.6338 -17.416 27.4775c-7.50977 6.36035 -11.0293 16.2041 -9.18359 25.7129c1.80957 9.34668 8.33301 16.7295 17.4443 19.7422
c27.1787 8.99316 51.2539 5.96191 69.6475 -8.74902c3.31152 -2.6416 7.74512 -2.6416 11.0469 0c18.3936 14.7197 42.4785 17.7422 69.6387 8.74902c9.12012 -3.02246 15.6436 -10.4053 17.4531 -19.751c1.83691 -9.5 -1.67383 -19.3525 -9.18359 -25.7041
c-9.26465 -7.84375 -14.584 -19.2715 -17.416 -27.4775c-3.68262 -10.6582 -13.6074 -17.8232 -24.7002 -17.8232h-82.6309c-11.0918 0 -21.0176 7.16504 -24.7002 17.8232zM69.2861 419.744c-0.597656 -3.12988 0.560547 -6.28809 3.1123 -8.4502
c12.4043 -10.5039 19.2617 -25.0342 22.8359 -35.3848c1.1582 -3.36523 4.20703 -5.62793 7.59082 -5.62793h82.6309c3.375 0 6.43359 2.2627 7.60059 5.61914c3.57324 10.3408 10.4316 24.8809 22.8359 35.3848c2.54199 2.16211 3.70898 5.3291 3.10254 8.45898
c-0.325195 1.69238 -1.46484 4.72363 -5.37402 6.0166c-21.3613 7.0752 -39.085 5.15723 -52.6562 -5.69922c-9.90723 -7.91699 -23.75 -7.91699 -33.6475 0v0c-8.22461 6.57715 -17.9775 9.87012 -29.1426 9.87012c-7.25586 0 -15.1006 -1.38379 -23.5146 -4.1709
c-3.9082 -1.29297 -5.03906 -4.32422 -5.37402 -6.0166zM216.517 311.174c10.6396 -8.2334 25.9668 -7.59082 35.7373 2.17188c3.53809 3.53711 9.25586 3.53711 12.7939 0c3.53711 -3.53809 3.53711 -9.25586 0 -12.793
c-8.8125 -8.8125 -20.4023 -13.2275 -31.9834 -13.2275c-10.2598 0 -20.4023 3.66406 -28.7441 10.5762h-114.47c-4.99414 0 -9.04688 4.05371 -9.04688 9.04785s4.05273 9.04688 9.04688 9.04688h108.571v9.04785h-108.571c-4.99414 0 -9.04688 4.05371 -9.04688 9.04785
s4.05273 9.04688 9.04688 9.04688h117.618c4.99414 0 9.04785 -4.05273 9.04785 -9.04688v-22.918zM89.8506 8.37988c5.00391 0 9.04785 -4.05273 9.04785 -9.04688s-4.05273 -9.04785 -9.04785 -9.04785c-24.9434 0 -45.2373 24.3467 -45.2373 54.2852
c0 4.99414 4.05371 9.04785 9.04785 9.04785s9.04688 -4.05371 9.04688 -9.04785c0 -19.959 12.1787 -36.1904 27.1426 -36.1904zM415.562 53.6182c33.6113 0 90.4756 -6.67773 90.4756 -31.667v-49.7607c0 -22.3564 -46.9658 -36.1904 -90.4756 -36.1904
s-90.4756 13.834 -90.4756 36.1904v49.7607c0 24.999 56.873 31.667 90.4756 31.667zM487.264 22.0244c-5.06641 4.67676 -29.0332 13.4893 -71.7471 13.4893c-42.7129 0 -66.626 -8.82129 -71.6924 -13.4893c0.19043 -0.199219 0.34375 -0.380859 0.606445 -0.588867
c0.352539 -0.289062 0.77832 -0.579102 1.25781 -0.886719c0.59668 -0.370117 1.32031 -0.768555 2.10742 -1.17578c0.642578 -0.326172 1.3125 -0.660156 2.08105 -0.995117c0.950195 -0.425781 2.07227 -0.850586 3.22168 -1.28516
c0.921875 -0.34375 1.85449 -0.696289 2.90332 -1.04004c1.33008 -0.43457 2.8418 -0.869141 4.37012 -1.29395c1.2041 -0.34375 2.37109 -0.678711 3.69141 -1.00391c1.71973 -0.416992 3.65527 -0.805664 5.58301 -1.2041
c1.45605 -0.297852 2.84082 -0.605469 4.41504 -0.886719c2.1709 -0.379883 4.5957 -0.705078 6.99316 -1.03125c1.6377 -0.225586 3.16699 -0.479492 4.91309 -0.678711c2.84961 -0.316406 5.98926 -0.541992 9.12012 -0.777344
c1.5918 -0.126953 3.04004 -0.290039 4.7041 -0.379883c4.94043 -0.271484 10.1699 -0.43457 15.752 -0.43457c5.58301 0 10.8125 0.163086 15.752 0.43457c1.66504 0.0986328 3.1123 0.261719 4.70508 0.379883c3.12988 0.225586 6.26953 0.452148 9.12012 0.777344
c1.74609 0.199219 3.27441 0.453125 4.91211 0.678711c2.39746 0.326172 4.82227 0.651367 6.99414 1.03125c1.57422 0.28125 2.95801 0.588867 4.41504 0.886719c1.92676 0.389648 3.86328 0.77832 5.58203 1.2041c1.32129 0.325195 2.49707 0.668945 3.69141 1.00391
c1.5293 0.424805 3.04883 0.859375 4.37012 1.29395c1.0498 0.352539 1.98145 0.696289 2.9043 1.04004c1.14941 0.43457 2.27148 0.859375 3.2207 1.28516c0.769531 0.334961 1.43848 0.668945 2.08105 0.995117c0.787109 0.398438 1.51074 0.795898 2.1084 1.17578
c0.479492 0.307617 0.904297 0.606445 1.25781 0.886719c0.261719 0.208008 0.416016 0.398438 0.605469 0.588867zM415.562 -45.9053c42.7041 0 70.1631 13.1279 72.4795 18.7559l-0.0537109 28.8438c-0.253906 -0.108398 -0.552734 -0.199219 -0.805664 -0.307617
c-2.12598 -0.905273 -4.36133 -1.76465 -6.72266 -2.54297c-0.125977 -0.0361328 -0.235352 -0.0810547 -0.361328 -0.125977c-2.50684 -0.814453 -5.14844 -1.53809 -7.85352 -2.2168c-0.868164 -0.216797 -1.75488 -0.407227 -2.6416 -0.615234
c-1.94531 -0.452148 -3.90918 -0.869141 -5.9082 -1.25781c-0.967773 -0.180664 -1.92676 -0.371094 -2.91309 -0.542969c-2.18945 -0.388672 -4.39746 -0.741211 -6.62305 -1.05859c-0.714844 -0.0996094 -1.4209 -0.216797 -2.13574 -0.316406
c-2.92188 -0.398438 -5.84473 -0.732422 -8.75781 -1.02246c-0.723633 -0.0722656 -1.42969 -0.126953 -2.15332 -0.189453c-2.23438 -0.208984 -4.45117 -0.389648 -6.64062 -0.53418c-0.958984 -0.0634766 -1.89062 -0.118164 -2.84082 -0.171875
c-2.01758 -0.118164 -3.98145 -0.208008 -5.91699 -0.280273c-0.833008 -0.0273438 -1.66504 -0.0634766 -2.48828 -0.0908203c-2.65137 -0.0722656 -5.23828 -0.117188 -7.67188 -0.117188c-2.44336 0 -5.03125 0.0449219 -7.68164 0.117188
c-0.805664 0.0273438 -1.62891 0.0634766 -2.45215 0.0908203c-1.9541 0.0722656 -3.92676 0.162109 -5.95312 0.280273c-0.931641 0.0537109 -1.85449 0.108398 -2.80469 0.171875c-2.18945 0.144531 -4.39746 0.325195 -6.63184 0.524414
c-0.733398 0.0634766 -1.44727 0.118164 -2.18066 0.19043c-2.9043 0.280273 -5.82617 0.624023 -8.74902 1.0127c-0.705078 0.0996094 -1.40234 0.217773 -2.10742 0.317383c-2.23535 0.325195 -4.44238 0.668945 -6.6416 1.05859
c-0.976562 0.171875 -1.93555 0.352539 -2.9043 0.542969c-1.99902 0.379883 -3.95312 0.804688 -5.88965 1.24805c-0.886719 0.199219 -1.78223 0.398438 -2.65137 0.615234c-2.65039 0.660156 -5.24707 1.375 -7.70801 2.17188
c-0.135742 0.0361328 -0.262695 0.0810547 -0.388672 0.125977c-2.40723 0.796875 -4.66895 1.66504 -6.83105 2.58789c-0.253906 0.108398 -0.551758 0.19043 -0.796875 0.298828v-29.4678c2.22656 -4.95801 29.6768 -18.0957 72.3809 -18.0957z" />
    <glyph glyph-name="uniF10A" unicode="&#xf10a;" 
d="M479.959 -23.9844c0 -4.41602 -3.58301 -7.99902 -8 -7.99902c-4.41504 0 -7.99902 3.58301 -7.99902 7.99902v263.983h-167.951c-2.41699 0 -4.58301 1.08398 -6.0498 2.76758l-29.25 29.2334h-244.667v-133.934v-186.051h239.967h239.95v263.983
c0 4.41699 3.58398 8 7.99805 8c4.41699 0 8 -3.59961 8 -8v-271.782v-0.217773c0 -4.39941 -3.58301 -7.99805 -8 -7.99805h-247.948h-247.75h-0.216797c-4.41699 0 -8 3.58203 -8 7.99805v194.067v141.733v0.200195c0 4.41699 3.58301 8 8 8h255.934v-0.0332031
c2.0332 0 4.06445 -0.78418 5.61621 -2.31738l29.6836 -29.6504h172.467h0.200195c4.41602 0 7.99805 -3.59961 7.99805 -8v-271.983h0.0185547zM32.042 312.017c0 -4.41699 -3.58398 -8 -8 -8c-4.41699 0 -8 3.58301 -8 8v127.983c0 4.41699 3.58301 8 8 8h0.199219
h303.734c4.41699 0 7.99902 -3.58301 7.99902 -8v-0.200195v-159.783c0 -4.41602 -3.58203 -8 -7.99902 -8c-4.41602 0 -7.99902 3.58398 -7.99902 8v151.983h-287.935v-119.983zM88.042 383.982c-4.41602 0 -8 3.58398 -8 8c0 4.41699 3.58398 7.99902 8 7.99902h175.95
c4.41602 0 8 -3.59961 8 -7.99902c0 -4.41602 -3.58398 -8 -8 -8h-175.95zM423.976 383.982c-4.41699 0 -8 3.58398 -8 8c0 4.41699 3.58301 7.99902 8 7.99902h32c4.41504 0 7.99902 -3.59961 7.99902 -7.99902v-0.216797v-111.75c0 -4.41602 -3.58398 -8 -7.99902 -8
c-4.41699 0 -8 3.58398 -8 8v103.967h-24zM88.042 319.967c-4.41602 0 -8 3.58301 -8 7.99902c0 4.41699 3.58398 8 8 8h175.95c4.41602 0 8 -3.58301 8 -8c0 -4.41602 -3.58398 -7.99902 -8 -7.99902h-175.95zM359.941 399.967c-4.41602 0 -7.99805 3.58301 -7.99805 8
c0 4.41602 3.58203 8 7.99805 8h32.0332c4.40137 0 8 -3.58398 8 -8v-0.200195v-127.733c0 -4.41602 -3.58301 -8 -8 -8c-4.41504 0 -7.99805 3.58398 -7.99805 8v119.934h-24.0352z" />
    <glyph glyph-name="uniF10B" unicode="&#xf10b;" 
d="M289.349 274.673c0 32.0498 -12.9834 61.0654 -33.9316 82.0137l-0.0166016 0.0166016l-0.0166016 -0.0166016c-20.9824 20.9824 -49.999 33.9824 -82.0137 33.9824c-32.0488 0 -61.0654 -12.9834 -82.0479 -33.9482
c-20.9658 -20.9824 -33.9482 -49.998 -33.9482 -82.0469c0 -32.0322 13 -61.0303 33.9658 -82.0137c20.9824 -20.9824 49.999 -33.9824 82.0303 -33.9824c32.0156 0 61.0322 12.9834 82.0146 33.9824l0.400391 0.366211c20.7314 20.8984 33.5635 49.7812 33.5635 81.6465v0z
M266.666 367.986c23.8984 -23.8994 38.6816 -56.8984 38.6816 -93.3135c0 -36.1816 -14.5986 -68.9971 -38.2158 -92.8467l-0.450195 -0.483398c-23.8818 -23.8818 -56.8818 -38.665 -93.3291 -38.665c-36.4482 0 -69.4639 14.7832 -93.3301 38.665
c-23.8652 23.8828 -38.665 56.8828 -38.665 93.3301c0 36.4316 14.7832 69.4307 38.6484 93.2969l0.0507812 0.0332031c23.8652 23.8662 56.8809 38.666 93.2959 38.666c36.4492 0 69.4482 -14.7832 93.3291 -38.666zM322.664 186.609
c-2.23242 -3.7832 -7.15039 -5.0498 -10.9316 -2.80176c-3.7832 2.2334 -5.05078 7.15039 -2.7998 10.9336c17.999 30.499 24.832 65.7969 20.5146 99.9131c-4.2334 33.3311 -19.2002 65.6143 -44.8486 91.2793c-30.7158 30.6992 -70.9971 46.0654 -111.246 46.0654
c-40.2812 0 -80.5635 -15.3496 -111.229 -46.0488l-0.0332031 -0.0166016l0.0166016 -0.0166016c-30.7158 -30.7148 -46.0811 -70.998 -46.0811 -111.246s15.3652 -80.5303 46.0811 -111.245c30.7148 -30.7158 70.9805 -46.0811 111.229 -46.0811
c40.2822 0 80.5645 15.3652 111.279 46.0811c3.11719 3.09961 8.18359 3.08496 11.2832 -0.0341797c3.09961 -3.11523 3.08301 -8.18066 -0.0332031 -11.2812c-33.8486 -33.832 -78.1973 -50.7666 -122.529 -50.7666c-44.3486 0 -88.7295 16.9512 -122.562 50.7666
c-33.832 33.833 -50.748 78.2139 -50.748 122.562s16.916 88.7305 50.7646 122.562l0.0166016 -0.0166016c33.8486 33.8486 78.2139 50.7812 122.545 50.7812c44.3496 0 88.7139 -16.916 122.562 -50.7646c28.1992 -28.1992 44.6816 -63.7812 49.3486 -100.597
c4.7666 -37.582 -2.7666 -76.4473 -22.5996 -110.029zM173.353 365.336c4.41602 0 8 -3.58301 8 -7.99902s-3.58398 -8 -8 -8c-5.19922 0 -10.1826 -0.516602 -14.8994 -1.44922c-4.91602 -1 -9.68262 -2.4834 -14.2002 -4.40039
c-4.33301 -1.83301 -8.56543 -4.14941 -12.5996 -6.86621l-0.382812 -0.25c-3.7666 -2.5498 -7.36621 -5.56641 -10.7168 -8.91602c-6.7832 -6.7998 -12.2832 -14.8496 -16.0322 -23.7002c-1.90039 -4.51562 -3.38281 -9.28223 -4.38379 -14.1992
c-0.933594 -4.7002 -1.44922 -9.68262 -1.44922 -14.8838c0 -4.41699 -3.58398 -7.99902 -8 -7.99902s-8 3.58203 -8 7.99902c0 6.0498 0.650391 12.083 1.81738 18c1.19922 5.98242 3.0166 11.7656 5.33301 17.2656c4.61621 10.8994 11.2656 20.6992 19.3984 28.833
c3.89941 3.89941 8.2832 7.53223 13.0166 10.7666l0.466797 0.333008c4.74902 3.19922 9.89941 5.98242 15.3652 8.29883c5.4834 2.31738 11.2666 4.13281 17.2666 5.35059c5.91797 1.16699 11.9512 1.81641 18 1.81641zM284.599 152.11
c-3.11621 3.11719 -3.11621 8.2002 0 11.3154c3.11816 3.11719 8.2002 3.11719 11.3154 0l45.6318 -45.6328c3.11816 -3.11523 3.11816 -8.2002 0 -11.3145c-3.11621 -3.11816 -8.19922 -3.11816 -11.3145 0zM331.548 116.445v0
c5.58398 5.58301 12.9336 8.36621 20.2666 8.36621c7.31641 0 14.6504 -2.7832 20.2334 -8.36621l0.0175781 -0.0175781l0.0166016 0.0175781l0.0175781 -0.0175781l43.8301 -43.8311l43.8311 -43.8486l43.8311 -43.8486h0.0175781
c5.58203 -5.56641 8.36426 -12.9336 8.36426 -20.25s-2.78223 -14.6494 -8.36621 -20.2324l-0.0175781 -0.0175781l0.0175781 -0.0175781l-0.0175781 -0.0166016h-0.0166016c-5.56641 -5.58398 -12.9336 -8.36816 -20.2676 -8.36816s-14.6836 2.78418 -20.249 8.36816
h-0.0175781l-43.8477 43.8486l-43.8486 43.8311l-43.832 43.8311l-0.0166016 0.0175781c-5.56641 5.58301 -8.36621 12.9316 -8.36621 20.2666c0.0361328 7.35254 2.83691 14.7031 8.41992 20.2852v0v0zM342.881 105.13v0l-0.0175781 -0.0175781
c-2.4502 -2.4502 -3.68359 -5.69922 -3.68359 -8.93262c0 -3.23438 1.23535 -6.5 3.68359 -8.9502l0.0175781 -0.0166016l43.8311 -43.832l43.8311 -43.8486l43.8301 -43.8486h0.0175781c2.4502 -2.44922 5.69922 -3.68066 8.93359 -3.68066s6.50098 1.2334 8.9502 3.68066
v0l0.0166016 0.0175781l0.0175781 -0.0175781c2.43359 2.45215 3.64941 5.68457 3.64941 8.9668c0 3.2334 -1.2334 6.4834 -3.66699 8.93555l-0.0166016 0.0166016l-43.832 43.8486l-43.8486 43.8477l-43.8301 43.832v0.0166016l0.0166016 0.0175781
c-2.4502 2.43262 -5.68359 3.65039 -8.9668 3.65039c-3.25 -0.00390625 -6.49902 -1.23633 -8.93262 -3.68555z" />
    <glyph glyph-name="uniF104" unicode="&#xf104;" 
d="M103.74 173.652l-49.4287 -39.5625c-3.43262 -2.73242 -8.44922 -2.18164 -11.1982 1.25c-1.16699 1.4668 -1.7334 3.2334 -1.7334 4.9834h-0.0507812v33.9961c-10.3652 1.71777 -19.6807 6.70117 -26.8135 13.8174l-0.0166016 0.0322266l-0.0166016 -0.0175781
c-8.91602 8.91699 -14.4824 21.2656 -14.4824 34.8477v175.632c0 13.583 5.56641 25.9307 14.4824 34.8467l0.566406 0.516602c8.89941 8.61621 21.0137 13.9658 34.2969 13.9658h289.305c13.5801 0 25.9307 -5.56641 34.8457 -14.4824
c8.91504 -8.93262 14.4814 -21.2637 14.4814 -34.8467v-175.632c0 -13.583 -5.56543 -25.9316 -14.4814 -34.8477l-0.567383 -0.515625c-8.89941 -8.61621 -20.998 -13.9834 -34.2803 -13.9834h-234.908v0zM57.3447 156.938l38.0293 30.4307
c1.44922 1.43359 3.44922 2.29883 5.63184 2.29883h237.644c8.96582 0 17.1484 3.60059 23.1631 9.39941l0.349609 0.400391c6.0332 6.03223 9.7998 14.3818 9.7998 23.5137v175.649c0 9.14941 -3.7666 17.498 -9.7998 23.5146
c-6.03223 6.03223 -14.3799 9.79883 -23.5312 9.79883h-289.285c-8.9668 0 -17.165 -3.59961 -23.1641 -9.39844l-0.366211 -0.400391c-6.0332 -6.0332 -9.79883 -14.3818 -9.79883 -23.5146v-175.632c0 -9.14941 3.76562 -17.4814 9.79883 -23.5146l-0.0175781 -0.0166016
c6 -5.9834 14.2656 -9.7168 23.3486 -9.78418h0.199219c4.41699 0 7.99902 -3.58105 7.99902 -8.01562v-24.7295v0zM15.0488 433.978l10.7656 -0.516602c-2.9502 2.96582 -7.61621 3.13379 -10.7656 0.516602v0zM372.93 187.636l-10.7656 0.515625
c2.94922 -2.94824 7.63281 -3.11523 10.7656 -0.515625zM70.0098 369.951c-4.41602 0 -8.01562 3.59961 -8.01562 8.01562s3.59961 8 8.01562 8h247.976c4.41602 0 8.01562 -3.58301 8.01562 -8c0 -4.41602 -3.59961 -8.01562 -8.01562 -8.01562h-247.976zM70.0098 320.623
c-4.41602 0 -8.01562 3.58203 -8.01562 7.99902c0 4.41602 3.59961 8.01562 8.01562 8.01562h247.976c4.41602 0 8.01562 -3.59961 8.01562 -8.01562c0 -4.41699 -3.59961 -7.99902 -8.01562 -7.99902h-247.976zM410.976 173.637c-4.41602 0 -8 3.58301 -8 8.01562
c0 4.41504 3.58301 8.01562 8 8.01562h30.9971c4.41602 0 7.99902 -3.58301 7.99902 -8.01562c0 -4.41602 -3.59961 -8.01562 -7.99902 -8.01562h-30.9971zM193.997 124.308c-4.41602 0 -7.99902 3.58203 -7.99902 7.99902s3.59961 8 7.99902 8h247.976
c4.41602 0 7.99902 -3.58301 7.99902 -8s-3.59961 -7.99902 -7.99902 -7.99902h-247.976zM193.997 74.9639c-4.41602 0 -7.99902 3.59961 -7.99902 8.01562s3.59961 7.99902 7.99902 7.99902h247.976c4.41602 0 7.99902 -3.59961 7.99902 -7.99902
c0 -4.41602 -3.59961 -8.01562 -7.99902 -8.01562h-247.976zM193.997 25.6348c-4.41602 0 -7.99902 3.59961 -7.99902 8.01562s3.59961 8.0166 7.99902 8.0166h175.649c4.41602 0 7.99902 -3.60059 7.99902 -8.0166s-3.58203 -8.01562 -7.99902 -8.01562h-175.649z
M123.987 140.34c0 4.41504 3.59961 7.99902 7.99902 7.99902c4.41699 0 8.0166 -3.58301 8.0166 -7.99902v-113.654c0 -9.15039 3.7666 -17.4824 9.79883 -23.5146l0.366211 -0.400391c6.01562 -5.7998 14.1992 -9.39941 23.1641 -9.39941h237.644
c2.18164 0 4.18262 -0.882812 5.63184 -2.29883l38.0625 -30.4639l0.0175781 24.7656c0 4.39844 3.58105 7.96484 7.98242 7.96484v0.0322266c9.14941 0 17.498 3.74902 23.5459 9.7832l-0.0166016 0.0166016c6.03223 6.03223 9.79883 14.3818 9.79883 23.5146v165.299
c0 9.15039 -3.7666 17.4814 -9.79883 23.5146l-0.366211 0.399414c-6.01465 5.7998 -14.1992 9.39941 -23.1631 9.39941h-41.3301c-4.41504 0 -8.01562 3.58301 -8.01562 8.0166c0 4.41602 3.60059 7.99902 8.01562 7.99902h41.3301
c13.2812 0 25.3809 -5.34961 34.2803 -13.9824l0.566406 -0.516602c8.91504 -8.93262 14.4824 -21.2646 14.4824 -34.8467v-165.302c0 -13.5801 -5.56641 -25.9141 -14.4824 -34.8447l-0.0175781 0.0166016l-0.0175781 -0.0166016
c-7.14844 -7.13379 -16.4658 -12.1152 -26.8467 -13.833l-0.0175781 -33.9795h-0.0175781c0 -1.75 -0.567383 -3.5 -1.75 -4.9834c-2.7334 -3.43262 -7.76562 -3.98145 -11.1992 -1.24902l-49.4287 39.5625h-234.908c-13.2812 0 -25.3809 5.35059 -34.2793 13.9658
l-0.566406 0.516602c-8.93262 8.93262 -14.4824 21.2793 -14.4824 34.8447v113.674h0.00195312zM70.0098 271.277c-4.41602 0 -8.01562 3.59961 -8.01562 8c0 4.41602 3.59961 8.01562 8.01562 8.01562h175.649c4.41602 0 8.01562 -3.59961 8.01562 -8.01562
s-3.59961 -8 -8.01562 -8h-175.649z" />
    <glyph glyph-name="uniF103" unicode="&#xf103;" 
d="M255.991 411.341c-26.334 0 -50.1514 -10.6846 -67.4023 -27.918l-0.416016 -0.382812c-17.001 -17.2344 -27.501 -40.9023 -27.501 -67.0361c0 -26.3174 10.6836 -50.168 27.917 -67.4023c17.251 -17.25 41.085 -27.917 67.4023 -27.917s50.1689 10.6846 67.4189 27.917
c17.251 17.251 27.918 41.085 27.918 67.4023c0 26.335 -10.667 50.1855 -27.9023 67.4355l-0.0175781 -0.0166016c-17.248 17.2334 -41.082 27.918 -67.417 27.918v0zM177.272 394.723c20.1338 20.1514 47.9678 32.6182 78.7188 32.6182s58.584 -12.4668 78.7354 -32.6182
l-0.0175781 -0.0166016l0.0175781 -0.0166016c20.1514 -20.1504 32.6016 -47.9854 32.6016 -78.7021c0 -30.751 -12.4658 -58.5859 -32.6016 -78.7197c-20.1338 -20.1338 -47.9844 -32.6006 -78.7354 -32.6006s-58.585 12.4668 -78.7188 32.6006
s-32.6006 47.9854 -32.6006 78.7197c0 30.4668 12.2666 58.085 32.1182 78.2188zM255.991 369.988c-6.35059 0 -12.1006 -2.58301 -16.2666 -6.73242c-4.15039 -4.16699 -6.7334 -9.91699 -6.7334 -16.2676s2.58301 -12.1006 6.7334 -16.2666
c4.14941 -4.15039 9.91699 -6.7334 16.2666 -6.7334c6.35059 0 12.1006 2.58301 16.2666 6.7334c4.15039 4.14941 6.73438 9.91699 6.73438 16.2666c0 6.35059 -2.58398 12.1006 -6.73438 16.2676c-4.16602 4.16602 -9.91602 6.73242 -16.2666 6.73242v0zM228.407 374.572
c7.0498 7.0498 16.8174 11.417 27.584 11.417c10.7676 0 20.5342 -4.38379 27.585 -11.417c7.0498 -7.0498 11.416 -16.8174 11.416 -27.584c0 -10.7676 -4.36816 -20.5352 -11.416 -27.585c-7.05078 -7.0498 -16.8174 -11.417 -27.585 -11.417
c-10.7666 0 -20.5342 4.38379 -27.584 11.417c-7.0498 7.0498 -11.417 16.8174 -11.417 27.585c0 10.7666 4.36719 20.5342 11.417 27.584zM215.607 289.87c-1.68359 -1.88379 -3.2168 -3.88379 -4.60059 -5.9668c-1.81738 -2.75 -3.41699 -5.68359 -4.7168 -8.7334
c5.58301 -6.76758 12.5176 -12.417 20.3838 -16.4512c8.75 -4.4834 18.7344 -7.0332 29.334 -7.0332c10.6006 0 20.583 2.5498 29.333 7.0332c7.86621 4.0332 14.8184 9.66699 20.3838 16.4512c-1.30078 3.0166 -2.88281 5.9502 -4.7168 8.7168l-0.298828 0.5
c-1.31738 1.93359 -2.75 3.7832 -4.30176 5.5332c-4.81641 -3.41699 -10.084 -6.2334 -15.6836 -8.34961c-7.73438 -2.91699 -16.084 -4.53418 -24.7334 -4.53418s-17.001 1.60059 -24.7344 4.53418c-5.58203 2.06641 -10.8486 4.88281 -15.6484 8.2998v0zM197.689 292.703
c3.41699 5.13379 7.4668 9.7832 12.0342 13.8008v0c2.9834 2.63379 7.5166 2.66699 10.5498 -0.0166016c4.83398 -4.2666 10.4678 -7.7002 16.6182 -10.0332c5.88379 -2.2168 12.334 -3.4502 19.1006 -3.4502s13.2178 1.21582 19.1006 3.4502
c6.08301 2.2998 11.6846 5.68262 16.4834 9.90039c2.96777 2.7666 7.61719 2.86719 10.7178 0.132812c4.40039 -3.86719 8.33398 -8.33301 11.6338 -13.2002l0.383789 -0.533203c3.29785 -4.9668 6.0332 -10.4834 8.01562 -16.3848h-0.0175781
c0.785156 -2.34961 0.467773 -5.0332 -1.08301 -7.18262c-7.40039 -10.2998 -17.251 -18.8174 -28.6348 -24.6504c-11 -5.65039 -23.4668 -8.85059 -36.6006 -8.85059s-25.585 3.2002 -36.6016 8.85059c-11.3838 5.83398 -21.2168 14.3506 -28.6182 24.6504
c-1.44922 2.0166 -1.9502 4.66699 -1.09961 7.18262c1.96777 5.83398 4.70117 11.334 8.01758 16.334zM111.338 163.314c-26.335 0 -50.1689 -10.6836 -67.4199 -27.916c-17.25 -17.25 -27.917 -41.085 -27.917 -67.4189c0 -26.3184 10.667 -50.168 27.917 -67.4033
c17.251 -17.2334 41.085 -27.916 67.4199 -27.916c26.334 0 50.168 10.6836 67.4014 27.916c17.251 17.252 27.918 41.085 27.918 67.4033c0 26.334 -10.6846 50.1689 -27.918 67.4189c-17.2344 17.2334 -41.085 27.916 -67.4014 27.916v0zM32.6006 146.716
c20.1338 20.1328 47.9854 32.6016 78.7363 32.6016s58.6006 -12.4678 78.7354 -32.6016c20.1348 -20.1348 32.6016 -47.9854 32.6016 -78.7354c0 -30.7354 -12.4668 -58.5859 -32.6016 -78.7207s-47.9844 -32.6006 -78.7354 -32.6006s-58.6025 12.4648 -78.7363 32.6006
c-20.1338 20.1338 -32.6006 47.9854 -32.6006 78.7197c0 30.75 12.4668 58.6016 32.6006 78.7363zM111.338 121.981c-6.35059 0 -12.1016 -2.58301 -16.2676 -6.7334c-4.15039 -4.15039 -6.7334 -9.90039 -6.7334 -16.2686c0 -6.34961 2.58301 -12.0996 6.7334 -16.2656
c4.16602 -4.15039 9.91699 -6.7334 16.2676 -6.7334c6.36621 0 12.1162 2.56641 16.25 6.69922l0.0166016 0.0175781l-0.0166016 0.0175781c4.16602 4.16602 6.7334 9.91699 6.7334 16.2656c0 6.35156 -2.58301 12.1016 -6.7334 16.2676l-0.416992 0.433594
c-4.08301 3.89941 -9.68359 6.2998 -15.833 6.2998v0zM83.7529 126.565c7.0498 7.0498 16.8174 11.416 27.585 11.416c10.4834 0 20 -4.15039 27.0166 -10.917l0.549805 -0.500977c7.0498 -7.05078 11.417 -16.8174 11.417 -27.585
c0 -10.7666 -4.36719 -20.5342 -11.417 -27.584l-0.0166016 0.0166016c-7.06738 -7.06543 -16.8174 -11.4512 -27.5508 -11.4512c-10.7676 0 -20.5342 4.38379 -27.585 11.416c-7.0498 7.05176 -11.417 16.8193 -11.417 27.5869
c-0.015625 10.8018 4.36816 20.5518 11.418 27.6025zM70.9355 41.8623c-1.66699 -1.88379 -3.2168 -3.88477 -4.60059 -5.9834l-0.0166016 -0.0341797l0.0166016 -0.0175781c-1.83301 -2.7666 -3.43359 -5.68262 -4.7168 -8.7168
c5.56641 -6.7666 12.5166 -12.3994 20.3838 -16.4336c8.75 -4.4834 18.7344 -7.03418 29.3506 -7.03418s20.584 2.55078 29.334 7.03418c7.86621 4.03223 14.8164 9.66699 20.3838 16.4336c-1.31738 3.06641 -2.91699 6.00098 -4.7334 8.75098
c-1.38281 2.10156 -2.93359 4.09961 -4.60059 5.9668c-4.81641 -3.41602 -10.1006 -6.2334 -15.6836 -8.34863c-7.73438 -2.91699 -16.0674 -4.53516 -24.7178 -4.53516s-17.001 1.60156 -24.7344 4.53516c-5.58203 2.14844 -10.8477 4.9668 -15.665 8.38281v0z
M53.0352 44.7119c3.33301 5.0166 7.35059 9.61621 11.8506 13.6172c2.9502 2.7666 7.59961 2.84961 10.7002 0.117188c4.83301 -4.26758 10.4834 -7.70117 16.6348 -10.0176c5.88379 -2.2168 12.334 -3.4502 19.0996 -3.4502c6.7666 0 13.2178 1.2334 19.085 3.4502
c6.08301 2.2998 11.6826 5.66602 16.4834 9.88281c2.9668 2.76855 7.61621 2.86816 10.7168 0.133789c4.56738 -4.03418 8.63379 -8.68359 12.0176 -13.7686c3.31641 -5.01562 6.0498 -10.5 8.0166 -16.3496h-0.0166016
c0.783203 -2.34961 0.466797 -5.03418 -1.08301 -7.18262c-7.40137 -10.3008 -17.2344 -18.8184 -28.6182 -24.6523c-11 -5.65039 -23.4678 -8.84961 -36.6016 -8.84961s-25.6006 3.19922 -36.6006 8.84961c-11.3838 5.83398 -21.2178 14.3506 -28.6182 24.6523
c-1.44922 2.01562 -1.9502 4.66602 -1.09863 7.18262c1.9834 5.90039 4.69922 11.416 8.0166 16.3838h0.015625v0.000976562zM400.663 163.314c-26.335 0 -50.168 -10.6836 -67.4189 -27.916c-17.251 -17.25 -27.917 -41.085 -27.917 -67.4189
c0 -26.3184 10.6836 -50.168 27.917 -67.4033c17.251 -17.25 41.084 -27.916 67.4189 -27.916c26.3174 0 50.1689 10.6836 67.4023 27.916c17.249 17.252 27.916 41.085 27.916 67.4033c0 26.334 -10.6846 50.1689 -27.916 67.4189
c-17.2334 17.2334 -41.0674 27.916 -67.4023 27.916v0zM321.943 146.716c20.1328 20.1328 47.9844 32.6016 78.7363 32.6016c30.7334 0 58.583 -12.4678 78.7188 -32.6016c20.1348 -20.1357 32.6016 -47.9863 32.6016 -78.7363
c0 -30.7344 -12.4668 -58.5859 -32.6016 -78.7207s-47.9844 -32.6006 -78.7188 -32.6006c-30.752 0 -58.6035 12.4658 -78.7363 32.6006c-20.1338 20.1338 -32.6172 47.9844 -32.6172 78.7207c0 30.75 12.4834 58.6016 32.6172 78.7363zM400.663 121.981
c-6.35059 0 -12.1006 -2.58301 -16.2676 -6.7334c-4.16504 -4.16699 -6.73242 -9.91699 -6.73242 -16.2686c0 -6.34961 2.58301 -12.0996 6.73242 -16.2656c4.15039 -4.15039 9.91699 -6.7334 16.2676 -6.7334c6.36719 0 12.1172 2.56641 16.25 6.69922l0.0175781 0.0175781
l-0.0175781 0.0175781c4.15039 4.16602 6.73438 9.91699 6.73438 16.2656c0 6.35156 -2.58398 12.1016 -6.73438 16.2676l-0.399414 0.433594c-4.10059 3.89941 -9.68359 6.2998 -15.8506 6.2998v0zM373.096 126.565c7.0498 7.0498 16.8184 11.416 27.584 11.416
c10.4688 0 20.001 -4.15039 27.0186 -10.917l0.549805 -0.500977c7.05078 -7.05078 11.416 -16.8174 11.416 -27.585c0 -10.7666 -4.36719 -20.5342 -11.416 -27.584l-0.0175781 0.0166016c-7.06738 -7.06543 -16.8008 -11.4512 -27.5508 -11.4512
c-10.7676 0 -20.5352 4.38379 -27.5859 11.416c-7.05078 7.05176 -11.416 16.8193 -11.416 27.5869c-0.015625 10.8018 4.36719 20.5518 11.418 27.6025zM360.262 41.8623c-1.66699 -1.88379 -3.2168 -3.88477 -4.59961 -5.9834l-0.0175781 -0.0341797l0.0175781 -0.0175781
c-1.85059 -2.7666 -3.43359 -5.68262 -4.71777 -8.7168c5.56543 -6.7666 12.5176 -12.3994 20.3828 -16.4336c8.75098 -4.4834 18.7354 -7.03418 29.3525 -7.03418c10.6006 0 20.583 2.55078 29.333 7.03418c7.86621 4.03223 14.7998 9.66699 20.3838 16.4336
c-1.30176 3.0498 -2.88379 5.96777 -4.71777 8.7168l-0.317383 0.500977c-1.31641 1.93359 -2.75 3.7666 -4.2832 5.5166c-4.81738 -3.41602 -10.084 -6.23145 -15.6836 -8.34766c-7.7334 -2.91699 -16.0664 -4.53418 -24.7178 -4.53418
c-8.65039 0 -17 1.59961 -24.7334 4.53418c-5.58203 2.13086 -10.8652 4.94922 -15.6816 8.36523v0zM342.377 44.7119c3.33398 5.0166 7.35059 9.61621 11.8682 13.6172c2.9502 2.7666 7.59961 2.84961 10.7002 0.117188
c4.83301 -4.26758 10.4834 -7.70117 16.6348 -10.0176c5.88281 -2.2168 12.333 -3.4502 19.0996 -3.4502c6.76855 0 13.2002 1.2334 19.085 3.4502c6.08301 2.2998 11.6836 5.66602 16.4834 9.88281c2.9668 2.76855 7.61621 2.86816 10.7178 0.133789
c4.40039 -3.88477 8.2998 -8.31641 11.6182 -13.1836l0.400391 -0.550781c3.31641 -4.9834 6.0332 -10.5 8.0166 -16.3662h-0.0166016c0.798828 -2.36621 0.481445 -5.05078 -1.08398 -7.2168c-7.40137 -10.3008 -17.25 -18.8174 -28.6357 -24.6514
c-11 -5.65039 -23.4678 -8.84961 -36.584 -8.84961c-13.1328 0 -25.6006 3.19922 -36.6006 8.84961c-11.3828 5.83398 -21.2168 14.3506 -28.6182 24.6514c-1.44922 2.0166 -1.94922 4.66699 -1.09863 7.18457c1.9834 5.90039 4.7002 11.416 8.0166 16.3838v0.015625
h-0.00292969zM340.428 187.384c2.2002 -3.80078 0.899414 -8.7002 -2.91699 -10.8994c-3.81641 -2.20215 -8.69922 -0.900391 -10.8994 2.91602l-5.0498 8.68262l-5.04883 8.68359c-2.20117 3.81738 -0.900391 8.7002 2.91602 10.9004
c3.7998 2.2002 8.69922 0.900391 10.8994 -2.91602l5.0498 -8.68359zM245.658 59.9785c-4.41797 0 -8.00098 3.58301 -8.00098 8.00098c0 4.41699 3.58301 8 8.00098 8h20.667c4.41699 0 8.00098 -3.58301 8.00098 -8c0 -4.41797 -3.58398 -8.00098 -8.00098 -8.00098
h-20.667zM185.39 179.383c-2.20117 -3.7998 -7.10059 -5.11719 -10.9004 -2.91602c-3.7998 2.19922 -5.11719 7.09961 -2.91699 10.9004l5.05078 8.68262l5.0498 8.68359c2.2002 3.81738 7.10059 5.11621 10.9014 2.91602
c3.7998 -2.19922 5.11621 -7.10059 2.91602 -10.9004l-5.05078 -8.68262z" />
  </font>
</defs></svg>
